Tested,Equipment,Place,Name,Division,BirthYear,Country,BodyweightKg,Bench1Kg,Bench2Kg,Bench3Kg,Best3BenchKg,Bench4Kg,WeightClassKg,Sex,CyrillicName,Event,TotalKg
Yes,Raw,1,Alena Lalokina,Amateur Teen 18-19,1995,Russia,43.4,32.5,-37.5,37.5,37.5,,44,F,Алена Лалокина,B,37.5
Yes,Raw,2,Viktoriya Lubsanova,Amateur Teen 18-19,1996,Russia,42,-27.5,27.5,-30,27.5,,44,F,Виктория Лубсанова,B,27.5
Yes,Raw,DQ,Natalya Sycheva,Amateur Teen 18-19,1995,Russia,41.7,-40,-40,-40,,,44,F,Наталья Сычева,B,
Yes,Raw,1,Natalya Savelyeva,Amateur Juniors 20-23,1991,Russia,43.2,35,37.5,-40,37.5,,44,F,Наталья Савельева,B,37.5
Yes,Raw,1,Anna Savchuk,Amateur Open,1984,Russia,43.3,50,52.5,55,55,,44,F,Анна Савчук,B,55
Yes,Raw,2,Anastasiya Golubeva,Amateur Open,1988,Russia,42.6,27.5,-35,-35,27.5,,44,F,Анастасия Голубева,B,27.5
Yes,Raw,1,Yuliya Murasheva,Amateur Masters 40-44,1970,Russia,43.5,-67.5,67.5,70,70,,44,F,Юлия Мурашева,B,70
Yes,Raw,1,Anastasiya Baranova,Amateur Teen 16-17,1998,Russia,46.6,52.5,-55,-55,52.5,,48,F,Анастасия Баранова,B,52.5
Yes,Raw,1,Ekaterina Matyukhina,Amateur Juniors 20-23,1990,Russia,47,47.5,-50,-50,47.5,,48,F,Екатерина Матюхина,B,47.5
Yes,Raw,1,Natalya Klementyeva,Amateur Open,1980,Russia,47.8,50,-55,55,55,,48,F,Наталья Клементьева,B,55
Yes,Raw,2,Olga Starovoytova,Amateur Open,1981,Russia,46.4,50,52.5,-55,52.5,,48,F,Ольга Старовойтова,B,52.5
Yes,Raw,3,Ekaterina Matyukhina,Amateur Open,1990,Russia,47,47.5,-50,-50,47.5,,48,F,Екатерина Матюхина,B,47.5
Yes,Raw,4,Evgeniya Astafyeva,Amateur Open,1982,Russia,46.1,40,45,-47.5,45,,48,F,Евгения Астафьева,B,45
Yes,Raw,5,Tatyana Primak,Amateur Open,1983,Russia,46.8,45,-52.5,-52.5,45,,48,F,Татьяна Примак,B,45
Yes,Raw,6,Anna Ivanova #6,Amateur Open,1984,Russia,47.7,40,45,-50,45,,48,F,Анна Иванова,B,45
Yes,Raw,1,Gulnara Garifullina,Amateur Open,1975,Russia,50.8,50,55,57.5,57.5,,52,F,Гульнара Гарифуллина,B,57.5
Yes,Raw,2,Olga Razdorozhnaya,Amateur Open,1990,Russia,51.4,45,47.5,50,50,,52,F,Ольга Раздорожная,B,50
Yes,Raw,1,Darya Shaposhnikova,Amateur Teen 13-15,1998,Russia,54.2,-40,40,-42.5,40,,56,F,Дарья Шапошникова,B,40
Yes,Raw,2,Ekaterina Yashnikova,Amateur Teen 13-15,1998,Russia,54.8,40,-42.5,-45,40,,56,F,Екатерина Яшникова,B,40
Yes,Raw,1,Yuliya Tarasova,Amateur Open,1973,Russia,55.8,70,-72.5,72.5,72.5,,56,F,Юлия Тарасова,B,72.5
Yes,Raw,2,Evgeniya Kovalenko,Amateur Open,1982,Russia,53.4,-65,65,67.5,67.5,,56,F,Евгения Коваленко,B,67.5
Yes,Raw,3,Natalya Zorina,Amateur Open,1970,Russia,55.3,62.5,-67.5,-67.5,62.5,,56,F,Наталья Зорина,B,62.5
Yes,Raw,4,Nina Chufarova,Amateur Open,1989,Russia,54.1,-45,45,47.5,47.5,,56,F,Нина Чуфарова,B,47.5
Yes,Raw,1,Yuliya Tarasova,Amateur Masters 40-44,1973,Russia,55.8,70,-72.5,72.5,72.5,,56,F,Юлия Тарасова,B,72.5
Yes,Raw,2,Natalya Zorina,Amateur Masters 40-44,1970,Russia,55.3,62.5,-67.5,-67.5,62.5,,56,F,Наталья Зорина,B,62.5
Yes,Raw,3,Nataliya Sorochinskaya,Amateur Masters 40-44,1974,Russia,54.5,50,55,-60,55,,56,F,Наталия Сорочинская,B,55
Yes,Raw,1,Polina Biryukova,Amateur Teen 16-17,1996,Russia,59.2,60,62.5,-65,62.5,,60,F,Полина Бирюкова,B,62.5
Yes,Raw,1,Anastasiya Guseva,Amateur Juniors 20-23,1990,Russia,59.5,47.5,,,47.5,,60,F,Анастасия Гусева,B,47.5
Yes,Raw,DQ,Ekaterina Dudareva,Amateur Juniors 20-23,1993,Russia,59.5,-57.5,-57.5,-57.5,,,60,F,Екатерина Дударева,B,
Yes,Raw,1,Svetlana Kladovschikova,Amateur Open,1982,Russia,60,62.5,67.5,70,70,,60,F,Светлана Кладовщикова,B,70
Yes,Raw,2,Raisa Sharueva,Amateur Open,1983,Russia,57.5,60,62.5,-65,62.5,,60,F,Раиса Шаруева,B,62.5
Yes,Raw,3,Irina Karpova,Amateur Open,1989,Russia,58.9,57.5,62.5,-65,62.5,,60,F,Ирина Карпова,B,62.5
Yes,Raw,4,Ekaterina Kolybelkina,Amateur Open,1990,Russia,59.9,52.5,-57.5,-57.5,52.5,,60,F,Екатерина Колыбелкина,B,52.5
Yes,Raw,5,Natalya Levenkova,Amateur Open,1988,Russia,57.4,42.5,47.5,50,50,,60,F,Наталья Левенкова,B,50
Yes,Raw,6,Mariya Ekimovskaya,Amateur Open,1989,Russia,59.2,47.5,50,-52.5,50,,60,F,Мария Екимовская,B,50
Yes,Raw,7,Olga Timokhina,Amateur Open,1984,Russia,58.7,-47.5,47.5,-52.5,47.5,,60,F,Ольга Тимохина,B,47.5
Yes,Raw,8,Elizaveta Makhneva,Amateur Open,1988,Russia,59.1,-45,-47.5,47.5,47.5,,60,F,Елизавета Махнева,B,47.5
Yes,Raw,DQ,Tatyana Obraztsova,Amateur Open,1978,Russia,58.5,-52.5,-52.5,-52.5,,,60,F,Татьяна Образцова,B,
Yes,Raw,1,Galina Kondratyeva,Amateur Masters 60-64,1952,Russia,57.3,42.5,45,-47.5,45,,60,F,Галина Кондратьева,B,45
Yes,Raw,1,Svetlana Sotnikova,Amateur Open,1983,Russia,66,75,77.5,-80,77.5,,67.5,F,Светлана Сотникова,B,77.5
Yes,Raw,2,Natalya Guzenina,Amateur Open,1989,Russia,65.3,55,-60,-60,55,,67.5,F,Наталья Гузенина,B,55
Yes,Raw,3,Mariya Novikova,Amateur Open,1981,Russia,64.2,37.5,40,42.5,42.5,,67.5,F,Мария Новикова,B,42.5
Yes,Raw,1,Natalya Dobrova,Amateur Masters 40-44,1970,Russia,60.1,-60,65,67.5,67.5,,67.5,F,Наталья Доброва,B,67.5
Yes,Raw,1,Olga Sidorova,Amateur Masters 45-49,1966,Russia,61.9,57.5,60,-62.5,60,,67.5,F,Ольга Сидорова,B,60
Yes,Raw,1,Mariya Balandina,Amateur Open,1988,Russia,70.3,40,-50,-50,40,,75,F,Мария Баландина,B,40
Yes,Raw,1,Alla Pugovkina,Amateur Open,1975,Russia,82.2,100,105,-110,105,,82.5,F,Алла Пуговкина,B,105
Yes,Raw,1,Marina Maksimova,Amateur Masters 45-49,1967,Russia,81.3,55,-57.5,-60,55,,82.5,F,Марина Максимова,B,55
Yes,Raw,1,Tatyana Sivkovich,Amateur Masters 45-49,1965,Russia,101.4,65,70,-75,70,,90+,F,Татьяна Сивкович,B,70
Yes,Raw,1,Fedor Zakharov,Amateur Teen 13-15,1999,Russia,54.2,75,85,-90,85,,56,M,Федор Захаров,B,85
Yes,Raw,2,Daniil Ershov,Amateur Teen 13-15,2000,Russia,55.1,52.5,57.5,60,60,,56,M,Даниил Ершов,B,60
Yes,Raw,3,Grigoriy Kirichenko,Amateur Teen 13-15,2000,Russia,53.5,-50,52.5,,52.5,,56,M,Григорий Кириченко,B,52.5
Yes,Raw,1,Roman Britasov,Amateur Teen 18-19,1995,Russia,54.4,62.5,67.5,-72.5,67.5,,56,M,Роман Бритасов,B,67.5
Yes,Raw,1,Egor Arkharov,Amateur Teen 13-15,1998,Russia,56.5,60,-62.5,,60,,60,M,Егор Архаров,B,60
Yes,Raw,DQ,Evgeniy Pleshkov,Amateur Teen 18-19,1995,Russia,57.4,-72.5,-72.5,-72.5,,,60,M,Евгений Плешков,B,
Yes,Raw,1,Ruslan Ragimov,Amateur Juniors 20-23,1992,Russia,58.2,87.5,-97.5,-97.5,87.5,,60,M,Руслан Рагимов,B,87.5
Yes,Raw,1,Aleksandr Merkulov,Amateur Open,1990,Russia,59.3,-120,-120,120,120,,60,M,Александр Меркулов,B,120
Yes,Raw,2,Vladimir Ofitserov,Amateur Open,1989,Russia,59.3,100,105,-112.5,105,,60,M,Владимир Офицеров,B,105
Yes,Raw,1,Viktor Fedotov,Amateur Youth,2002,Russia,67.1,55,60,-62.5,60,,67.5,M,Виктор Федотов,B,60
Yes,Raw,1,Vladimir Panyutin,Amateur Teen 16-17,1997,Russia,62.5,102.5,107.5,110,110,,67.5,M,Владимир Панютин,B,110
Yes,Raw,2,Maksim Konyashin,Amateur Teen 16-17,1996,Russia,65,-75,87.5,-90,87.5,,67.5,M,Максим Коняшин,B,87.5
Yes,Raw,3,Aleksey Sturov,Amateur Teen 16-17,1997,Russia,62.8,80,-82.5,-87.5,80,,67.5,M,Алексей Стуров,B,80
Yes,Raw,1,Sergey Ivanov,Amateur Teen 18-19,1995,Russia,66.9,100,107.5,-112.5,107.5,,67.5,M,Сергей Иванов,B,107.5
Yes,Raw,1,Ivan Luchenkov,Amateur Juniors 20-23,1991,Russia,63.6,122.5,125,-130,125,,67.5,M,Иван Лученков,B,125
Yes,Raw,2,Andrey Dezhin,Amateur Juniors 20-23,1992,Russia,66.2,115,120,-125,120,,67.5,M,Андрей Дежин,B,120
Yes,Raw,3,Zubayru Rustanov,Amateur Juniors 20-23,1991,Russia,64.9,105,110,-125,110,,67.5,M,Зубайру Рустанов,B,110
Yes,Raw,1,Nikita Samokhvalov,Amateur Open,1988,Russia,64.2,-127.5,130,-137.5,130,,67.5,M,Никита Самохвалов,B,130
Yes,Raw,2,Dmitriy Lukoyanov,Amateur Open,1980,Russia,65.6,-120,120,-125,120,,67.5,M,Дмитрий Лукоянов,B,120
Yes,Raw,3,Oleg Schetinin,Amateur Open,1989,Russia,65.9,107.5,115,-125,115,,67.5,M,Олег Щетинин,B,115
Yes,Raw,4,Vladimir Semenichenko,Amateur Open,1986,Russia,65.9,102.5,107.5,-110,107.5,,67.5,M,Владимир Семениченко,B,107.5
Yes,Raw,5,Aleksandr Cheban,Amateur Open,1986,Russia,61.1,100,-107.5,,100,,67.5,M,Александр Чебан,B,100
Yes,Raw,6,Dmitriy Shesterov,Amateur Open,1987,Russia,66.2,-95,95,100,100,,67.5,M,Дмитрий Шестеров,B,100
Yes,Raw,DQ,Mikhail Kot,Amateur Open,1986,Russia,64.4,-125,-125,-125,,,67.5,M,Михаил Кот,B,
Yes,Raw,1,Viktor Kvyatkovskiy,Amateur Masters 40-44,1971,Russia,67.2,125,130,-132.5,130,,67.5,M,Виктор Квятковский,B,130
Yes,Raw,1,Vladimir Kruchaev,Amateur Masters 45-49,1968,Russia,66.5,107.5,-110,-110,107.5,,67.5,M,Владимир Кручаев,B,107.5
Yes,Raw,1,Nikolay Obukhov,Amateur Masters 60-64,1953,Russia,67.1,90,-95,-95,90,,67.5,M,Николай Обухов,B,90
Yes,Raw,DQ,Leonid Abramovich,Amateur Masters 70-74,1939,Russia,64.6,-90,,,,,67.5,M,Леонид Абрамович,B,
Yes,Raw,1,Saveliy Bokarev,Amateur Teen 13-15,1998,Russia,70.9,85,90,95,95,,75,M,Савелий Бокарев,B,95
Yes,Raw,2,Rubik Akopyan,Amateur Teen 13-15,1998,Russia,73.5,70,80,-85,80,,75,M,Рубик Акопян,B,80
Yes,Raw,1,Georgiy Bebiashvili,Amateur Teen 16-17,1997,Russia,72.5,-85,85,-95,85,,75,M,Георгий Бебиашвили,B,85
Yes,Raw,DQ,Sergey Vetrov,Amateur Teen 16-17,1997,Russia,70.9,-105,-105,-105,,,75,M,Сергей Ветров,B,
Yes,Raw,1,Renat Ibragimov,Amateur Teen 18-19,1995,Russia,71.8,125,130,-135,130,,75,M,Ренат Ибрагимов,B,130
Yes,Raw,2,Artemiy Sinitsyn,Amateur Teen 18-19,1994,Russia,67.8,110,117.5,-120,117.5,,75,M,Артемий Синицын,B,117.5
Yes,Raw,DQ,Pavel Podkovyrov,Amateur Teen 18-19,1994,Russia,74.1,-115,-115,-117.5,,,75,M,Павел Подковыров,B,
Yes,Raw,DQ,Alon Groysman,Amateur Teen 18-19,1995,Russia,74.3,-110,-117.5,-117.5,,,75,M,Алон Гройсман,B,
Yes,Raw,1,Ilya Varshavskiy,Amateur Juniors 20-23,1991,Russia,73.3,150,155,157.5,157.5,,75,M,Илья Варшавский,B,157.5
Yes,Raw,2,Vladimir Zhiltsov,Amateur Juniors 20-23,1992,Russia,73.9,125,135,140,140,,75,M,Владимир Жильцов,B,140
Yes,Raw,3,Aleksandr Gontarenko,Amateur Juniors 20-23,1990,Russia,74.9,130,-135,140,140,,75,M,Александр Гонтаренко,B,140
Yes,Raw,4,Aleksandr Volodin,Amateur Juniors 20-23,1991,Russia,71.9,125,135,-140,135,,75,M,Александр Володин,B,135
Yes,Raw,DQ,Artem Dmitriev,Amateur Juniors 20-23,1992,Russia,74.2,-112.5,-112.5,-112.5,,,75,M,Артем Дмитриев,B,
Yes,Raw,1,Mikhail Rokunov,Amateur Open,1988,Russia,72.5,135,-147.5,150,150,,75,M,Михаил Рокунов,B,150
Yes,Raw,2,Aleksey Klyushin,Amateur Open,1981,Russia,71.7,125,135,140,140,,75,M,Алексей Клюшин,B,140
Yes,Raw,3,Vladislav Atlashkin,Amateur Open,1985,Russia,74.4,130,135,137.5,137.5,,75,M,Владислав Атлашкин,B,137.5
Yes,Raw,4,Maksim Pavlov,Amateur Open,1986,Russia,72.2,-125,130,-135,130,,75,M,Максим Павлов,B,130
Yes,Raw,5,Sergey Kirillov,Amateur Open,1978,Russia,74.1,125,130,-135,130,,75,M,Сергей Кириллов,B,130
Yes,Raw,6,Stanislav Melkumyan,Amateur Open,1989,Russia,68.6,115,120,125,125,,75,M,Станислав Мелкумян,B,125
Yes,Raw,7,Artem Lobastov,Amateur Open,1981,Russia,73,120,-125,-125,120,,75,M,Артем Лобастов,B,120
Yes,Raw,8,Valeriy Kovalev,Amateur Open,1981,Russia,74.3,120,-127.5,-127.5,120,,75,M,Валерий Ковалев,B,120
Yes,Raw,9,Mikhail Kiryushin,Amateur Open,1987,Russia,73.2,112.5,-117.5,-117.5,112.5,,75,M,Михаил Кирюшин,B,112.5
Yes,Raw,10,Dmitriy Ustinin,Amateur Open,1983,Russia,73.4,110,-117.5,-117.5,110,,75,M,Дмитрий Устинин,B,110
Yes,Raw,11,Pavel Chesnokov,Amateur Open,1984,Russia,72.9,105,-110,-110,105,,75,M,Павел Чесноков,B,105
Yes,Raw,12,Nikita Boyko,Amateur Open,1996,Russia,70.6,87.5,92.5,95,95,,75,M,Никита Бойко,B,95
Yes,Raw,13,Vladimir Lesnykh,Amateur Open,1990,Russia,71.9,82.5,90,-95,90,,75,M,Владимир Лесных,B,90
Yes,Raw,DQ,Evgeniy Batyaev,Amateur Open,1986,Russia,72.1,-105,-105,-105,,,75,M,Евгений Батяев,B,
Yes,Raw,DQ,Roman Petrakov,Amateur Open,1981,Russia,73.4,-150,-150,,,,75,M,Роман Петраков,B,
Yes,Raw,DQ,Akper Mekhtizade,Amateur Open,1990,Russia,73.5,-117.5,-117.5,-117.5,,,75,M,Акпер Мехтизаде,B,
Yes,Raw,DQ,Andrey Nazarov,Amateur Open,1990,Russia,73.8,-112.5,-117.5,-117.5,,,75,M,Андрей Назаров,B,
Yes,Raw,DQ,Aleksey Frolov,Amateur Open,1981,Russia,74.4,-117.5,-117.5,-117.5,,,75,M,Алексей Фролов,B,
Yes,Raw,DQ,Sergey Schukin,Amateur Open,1988,Russia,74.4,-135,-140,-140,,,75,M,Сергей Щукин,B,
Yes,Raw,1,Valeriy Kimmel,Amateur Masters 40-44,1972,Russia,72.8,130,135,-137.5,135,,75,M,Валерий Киммель,B,135
Yes,Raw,1,Andrey Belyakov,Amateur Masters 45-49,1966,Russia,73.6,117.5,-120,-120,117.5,,75,M,Андрей Беляков,B,117.5
Yes,Raw,1,Oleg Novikov,Amateur Masters 55-59,1956,Russia,73.8,130,135,137.5,137.5,,75,M,Олег Новиков,B,137.5
Yes,Raw,2,Gennady Semenichenko,Amateur Masters 55-59,1959,Russia,73.7,130,-135,135,135,,75,M,Геннадий Семениченко,B,135
Yes,Raw,3,Viktor Ovsyanyy,Amateur Masters 55-59,1958,Russia,73.7,130,-132.5,-135,130,,75,M,Виктор Овсяный,B,130
Yes,Raw,1,Daniil Nasyrov,Amateur Teen 13-15,1999,Russia,80.4,75,82.5,90,90,,82.5,M,Даниил Насыров,B,90
Yes,Raw,1,Artem Golovanov,Amateur Teen 16-17,1997,Russia,78.2,110,127.5,130,130,,82.5,M,Артем Голованов,B,130
Yes,Raw,1,Shavo Broyan,Amateur Teen 18-19,1996,Russia,79.6,100,107.5,112.5,112.5,,82.5,M,Шаво Броян,B,112.5
Yes,Raw,2,Aleksandr Tvorogov,Amateur Teen 18-19,1996,Russia,75.4,85,97.5,102.5,102.5,,82.5,M,Александр Творогов,B,102.5
Yes,Raw,1,Artem Elfimov,Amateur Juniors 20-23,1993,Russia,82.1,-145,145,,145,,82.5,M,Артем Елфимов,B,145
Yes,Raw,2,Aleksandr Vorokhobov,Amateur Juniors 20-23,1990,Belarus,79.4,127.5,-130,132.5,132.5,,82.5,M,,B,132.5
Yes,Raw,3,Aleksandr Aleksandrov #5,Amateur Juniors 20-23,1990,Russia,81.3,-130,130,,130,,82.5,M,Александр Александров,B,130
Yes,Raw,4,Anton Subbotin,Amateur Juniors 20-23,1991,Russia,78.9,-127.5,127.5,,127.5,,82.5,M,Антон Субботин,B,127.5
Yes,Raw,DQ,Turpal Aytukaev,Amateur Juniors 20-23,1993,Russia,81.8,-145,-145,-145,,,82.5,M,Турпал Айтукаев,B,
Yes,Raw,1,Andrey Sapozhonkov,Amateur Open,1987,Russia,80.5,205,207.5,-210,207.5,,82.5,M,Андрей Сапожонков,B,207.5
Yes,Raw,2,Sergey Kusliev,Amateur Open,1988,Russia,78.7,130,145,150,150,,82.5,M,Сергей Куслиев,B,150
Yes,Raw,3,Sergey Myakishev,Amateur Open,1985,Russia,81.1,-147.5,147.5,-150,147.5,,82.5,M,Сергей Мякишев,B,147.5
Yes,Raw,4,Vladislav Girko,Amateur Open,1987,Russia,81.3,147.5,-150,-150,147.5,,82.5,M,Владислав Гирко,B,147.5
Yes,Raw,5,Aleksandr Lebedev,Amateur Open,1986,Russia,80.4,140,145,-150,145,,82.5,M,Александр Лебедев,B,145
Yes,Raw,6,Evgeniy Zhidkov,Amateur Open,1974,Russia,81.1,127.5,145,-150,145,,82.5,M,Евгений Жидков,B,145
Yes,Raw,7,Vladimir Belikov,Amateur Open,1984,Russia,82.5,145,,-152.5,145,,82.5,M,Владимир Беликов,B,145
Yes,Raw,8,Vitaliy Demchenko,Amateur Open,1986,Russia,77.4,135,-145,-145,135,,82.5,M,Виталий Демченко,B,135
Yes,Raw,9,Aleksey Demishov,Amateur Open,1985,Russia,78.3,130,135,-140,135,,82.5,M,Алексей Демишов,B,135
Yes,Raw,10,Aleksey Vshivkov,Amateur Open,1986,Russia,82.1,120,130,135,135,,82.5,M,Алексей Вшивков,B,135
Yes,Raw,11,Andrey Grebenkin,Amateur Open,1980,Russia,82.2,-130,135,-145,135,,82.5,M,Андрей Гребенкин,B,135
Yes,Raw,12,Roman Osipenko,Amateur Open,1987,Russia,80.9,132.5,-135,-135,132.5,,82.5,M,Роман Осипенко,B,132.5
Yes,Raw,13,Andrey Minin,Amateur Open,1976,Russia,81.4,130,-145,-145,130,,82.5,M,Андрей Минин,B,130
Yes,Raw,14,Aleksey Samardin,Amateur Open,1983,Russia,78.2,-120,127.5,-132.5,127.5,,82.5,M,Алексей Самардин,B,127.5
Yes,Raw,15,Artem Nekrasov,Amateur Open,1980,Russia,80.4,127.5,,-130,127.5,,82.5,M,Артем Некрасов,B,127.5
Yes,Raw,16,Andrey Ilyasov,Amateur Open,1987,Russia,80.9,127.5,,,127.5,,82.5,M,Андрей Ильясов,B,127.5
Yes,Raw,17,Boris Dukhnovskiy,Amateur Open,1986,Russia,81.3,110,112.5,120,120,,82.5,M,Борис Духновский,B,120
Yes,Raw,18,Vyacheslav Yamashkin,Amateur Open,1990,Russia,75.6,100,110,-120,110,,82.5,M,Вячеслав Ямашкин,B,110
Yes,Raw,19,Ilya Starostin,Amateur Open,1990,Russia,80.8,100,105,-110,105,,82.5,M,Илья Старостин,B,105
Yes,Raw,20,Fedor Semenov,Amateur Open,1988,Russia,79.3,87.5,-90,,87.5,,82.5,M,Федор Семенов,B,87.5
Yes,Raw,DQ,Aleksandr Ivanov,Amateur Open,1989,Russia,81.2,-115,,-127.5,,,82.5,M,Александр Иванов,B,
Yes,Raw,1,Vladimir Schegolkov,Amateur Masters 40-44,1973,Russia,80.3,165,172.5,-175,172.5,,82.5,M,Владимир Щегольков,B,172.5
Yes,Raw,2,Dmitriy Karezin,Amateur Masters 40-44,1970,Russia,80,147.5,152.5,-155,152.5,,82.5,M,Дмитрий Карезин,B,152.5
Yes,Raw,DQ,Ilya Zakharov,Amateur Masters 40-44,1973,Russia,82.1,-140,-145,-145,,,82.5,M,Илья Захаров,B,
Yes,Raw,1,Vladimir Fateev,Amateur Masters 45-49,1964,Russia,78.6,110,115,-120,115,,82.5,M,Владимир Фатеев,B,115
Yes,Raw,1,Nikolay Kireev,Amateur Masters 50-54,1963,Russia,80.1,135,142.5,147.5,147.5,,82.5,M,Николай Киреев,B,147.5
Yes,Raw,1,Vasiliy Mosin,Amateur Masters 55-59,1956,Russia,81.3,140,145,147.5,147.5,,82.5,M,Василий Мосин,B,147.5
Yes,Raw,2,Igor Kovalev,Amateur Masters 55-59,1957,Russia,81.7,140,147.5,-155,147.5,,82.5,M,Игорь Ковалев,B,147.5
Yes,Raw,3,Vladimir Kulakov,Amateur Masters 55-59,1955,Russia,77.7,85,95,100,100,,82.5,M,Владимир Кулаков,B,100
Yes,Raw,1,Boris Grachev,Amateur Masters 65-69,1945,Russia,81.1,100,-105,-105,100,,82.5,M,Борис Грачев,B,100
Yes,Raw,1,Nikita Antonenko,Amateur Teen 13-15,1998,Russia,85.1,90,95,-100,95,,90,M,Никита Антоненко,B,95
Yes,Raw,1,Bogdan Maryukha,Amateur Teen 16-17,1996,Russia,85.9,120,-132.5,-132.5,120,,90,M,Богдан Марюха,B,120
Yes,Raw,DQ,Egor Shepelev,Amateur Teen 16-17,1996,Russia,86.4,-117.5,-120,-120,,,90,M,Егор Шепелев,B,
Yes,Raw,DQ,Kirill Trusov,Amateur Teen 18-19,1995,Russia,86.6,-110,-110,-110,,,90,M,Кирилл Трусов,B,
Yes,Raw,1,Evgeniy Fedyainov,Amateur Juniors 20-23,1991,Russia,87.2,-145,145,,145,,90,M,Евгений Федяинов,B,145
Yes,Raw,2,Aleksandr Prischepo,Amateur Juniors 20-23,1991,Russia,85.9,117.5,127.5,135,135,,90,M,Александр Прищепо,B,135
Yes,Raw,3,Dmitriy Astafyev,Amateur Juniors 20-23,1993,Russia,85.1,132.5,-137.5,-137.5,132.5,,90,M,Дмитрий Астафьев,B,132.5
Yes,Raw,4,Viktor Bodrenkov,Amateur Juniors 20-23,1990,Russia,86.6,110,120,122.5,122.5,,90,M,Виктор Бодренков,B,122.5
Yes,Raw,DQ,Anton Chernov,Amateur Juniors 20-23,1993,Russia,85.6,-150,-150,-150,,,90,M,Антон Чернов,B,
Yes,Raw,1,Aleksey Minaev,Amateur Open,1985,Russia,88.5,170,180,,180,,90,M,Алексей Минаев,B,180
Yes,Raw,2,Karen Arutyunyan,Amateur Open,1990,Russia,88.2,170,175,,175,,90,M,Карен Арутюнян,B,175
Yes,Raw,3,Aleksey Shustov,Amateur Open,1985,Russia,89.5,-170,170,-177.5,170,,90,M,Алексей Шустов,B,170
Yes,Raw,4,Ivan Tsvetkov,Amateur Open,1986,Russia,83.9,-165,,165,165,,90,M,Иван Цветков,B,165
Yes,Raw,5,Dmitriy Petrov,Amateur Open,1986,Russia,86.9,152.5,-157.5,162.5,162.5,,90,M,Дмитрий Петров,B,162.5
Yes,Raw,6,Aleksey Kostenko,Amateur Open,1980,Russia,88.4,155,162.5,-165,162.5,,90,M,Алексей Костенко,B,162.5
Yes,Raw,7,Aleksandr Pismak,Amateur Open,1980,Russia,88,140,152.5,160,160,,90,M,Александр Письмак,B,160
Yes,Raw,8,Viktor Eliseev,Amateur Open,1987,Russia,87.4,140,152.5,157.5,157.5,,90,M,Виктор Елисеев,B,157.5
Yes,Raw,9,Evgeniy Ovsyanko,Amateur Open,1983,Russia,86.7,140,150,152.5,152.5,,90,M,Евгений Овсянко,B,152.5
Yes,Raw,10,Sergey Lyaper,Amateur Open,1986,Russia,87.9,140,152.5,-160,152.5,,90,M,Сергей Ляпер,B,152.5
Yes,Raw,11,Nikolay Boytsov,Amateur Open,1982,Russia,89,145,-152.5,-152.5,145,,90,M,Николай Бойцов,B,145
Yes,Raw,12,Aleksandr Kaluzhskiy,Amateur Open,1983,Russia,88.3,-142.5,-142.5,142.5,142.5,,90,M,Александр Калужский,B,142.5
Yes,Raw,13,Denis Malakhov,Amateur Open,1987,Russia,86.3,132.5,140,-145,140,,90,M,Денис Малахов,B,140
Yes,Raw,14,Igor Aleksandrov,Amateur Open,1989,Russia,87.4,140,-150,-150,140,,90,M,Игорь Александров,B,140
Yes,Raw,15,Aleksey Pozdin,Amateur Open,1980,Russia,85.4,127.5,132.5,137.5,137.5,,90,M,Алексей Поздин,B,137.5
Yes,Raw,16,Grigoriy Aksenov,Amateur Open,1989,Russia,85.4,130,132.5,137.5,137.5,,90,M,Григорий Аксенов,B,137.5
Yes,Raw,17,Petr Dolgikh,Amateur Open,1985,Russia,83.8,120,132.5,-140,132.5,,90,M,Петр Долгих,B,132.5
Yes,Raw,18,Evgeniy Vasilenko,Amateur Open,1983,Russia,85,125,,132.5,132.5,,90,M,Евгений Василенко,B,132.5
Yes,Raw,19,Andrey Ilgov,Amateur Open,1982,Russia,87.3,125,132.5,,132.5,,90,M,Андрей Ильгов,B,132.5
Yes,Raw,20,Denis Melnikov,Amateur Open,1988,Russia,88.7,125,132.5,-140,132.5,,90,M,Денис Мельников,B,132.5
Yes,Raw,21,Maksim Mikhaylov,Amateur Open,1983,Russia,85.1,125,-132.5,-132.5,125,,90,M,Максим Михайлов,B,125
Yes,Raw,22,Aleksey Borisov,Amateur Open,1987,Russia,89.6,120,-127.5,-127.5,120,,90,M,Алексей Борисов,B,120
Yes,Raw,23,Aleksey Fursov,Amateur Open,1987,Russia,88.3,110,115,-120,115,,90,M,Алексей Фурсов,B,115
Yes,Raw,24,Sergey Medinskiy,Amateur Open,1983,Russia,88.1,100,-107.5,-107.5,100,,90,M,Сергей Мединский,B,100
Yes,Raw,25,Yuriy Ruzheynikov,Amateur Open,1975,Russia,88,90,92.5,95,95,,90,M,Юрий Ружейников,B,95
Yes,Raw,DQ,Leonid Korneychuk,Amateur Open,1986,Russia,86.7,-115,,-120,,,90,M,Леонид Корнейчук,B,
Yes,Raw,DQ,Maksim Perekipnyy,Amateur Open,1985,Russia,88.3,-152.5,-152.5,-152.5,,,90,M,Максим Перекипный,B,
Yes,Raw,1,Aleksandr Rumyantsev,Amateur Masters 40-44,1969,Russia,88.1,145,152.5,157.5,157.5,,90,M,Александр Румянцев,B,157.5
Yes,Raw,2,Valeriy Chernov #1,Amateur Masters 40-44,1969,Russia,89,145,150,-152.5,150,,90,M,Валерий Чернов,B,150
Yes,Raw,3,Yaroslav Demenko,Amateur Masters 40-44,1969,Russia,85.6,120,132.5,140,140,,90,M,Ярослав Деменко,B,140
Yes,Raw,4,Aleksey Strulev,Amateur Masters 40-44,1971,Russia,89.5,130,-140,-140,130,,90,M,Алексей Струлев,B,130
Yes,Raw,5,Artur Nadyrov,Amateur Masters 40-44,1970,Russia,89.1,120,-125,-125,120,,90,M,Артур Надыров,B,120
Yes,Raw,DQ,Yuriy Efremkin,Amateur Masters 40-44,1974,Russia,84.2,-127.5,-127.5,-127.5,,,90,M,Юрий Ефремкин,B,
Yes,Raw,1,Alexander Vorobyev,Amateur Masters 45-49,1967,Russia,85.7,150,155,160,160,,90,M,Александр Воробьев,B,160
Yes,Raw,2,Igor Polunin,Amateur Masters 45-49,1966,Russia,88.3,-145,145,147.5,147.5,,90,M,Игорь Полунин,B,147.5
Yes,Raw,3,Evgeniy Lebedev,Amateur Masters 45-49,1968,Russia,89.7,120,132.5,140,140,,90,M,Евгений Лебедев,B,140
Yes,Raw,1,Leonid Skvortsov,Amateur Masters 50-54,1962,Russia,89,160,172.5,-175,172.5,,90,M,Леонид Скворцов,B,172.5
Yes,Raw,2,Sergey Bazanov,Amateur Masters 50-54,1962,Russia,84.8,140,147.5,-152.5,147.5,,90,M,Сергей Базанов,B,147.5
Yes,Raw,3,Sergey Vasilyev,Amateur Masters 50-54,1961,Russia,85.6,135,140,145,145,,90,M,Сергей Васильев,B,145
Yes,Raw,1,Aleksandr Bukharin,Amateur Teen 13-15,1999,Russia,91.5,135,-140,-140,135,,100,M,Александр Бухарин,B,135
Yes,Raw,1,Aleksey Dmitriev,Amateur Teen 16-17,1996,Russia,97.9,-110,110,-120,110,,100,M,Алексей Дмитриев,B,110
Yes,Raw,1,Evgeniy Sobolev,Amateur Teen 18-19,1995,Russia,95.3,-130,140,-145,140,,100,M,Евгений Соболев,B,140
Yes,Raw,DD,Artem Afanasyev #2,Amateur Teen 18-19,1994,Russia,92.2,125,140,-162.5,140,,100,M,Артем Афанасьев,B,
Yes,Raw,1,Ilya Obraztsov,Amateur Juniors 20-23,1991,Russia,98.1,135,140,147.5,147.5,,100,M,Илья Образцов,B,147.5
Yes,Raw,2,Gleb Filkov,Amateur Juniors 20-23,1990,Russia,97.6,140,142.5,145,145,,100,M,Глеб Фильков,B,145
Yes,Raw,DQ,Ilya Mishanov,Amateur Juniors 20-23,1991,Russia,95.5,-155,-157.5,-162.5,,,100,M,Илья Мишанов,B,
Yes,Raw,1,Ilya Orlov,Amateur Open,1982,Russia,98.5,195,205,210,210,,100,M,Илья Орлов,B,210
Yes,Raw,2,Semen Borkin,Amateur Open,1981,Russia,96.4,167.5,172.5,175,175,,100,M,Семен Борькин,B,175
Yes,Raw,3,Denis Filippov,Amateur Open,1990,Russia,93.1,140,150,162.5,162.5,,100,M,Денис Филиппов,B,162.5
Yes,Raw,4,Dmitriy Benyash,Amateur Open,1988,Russia,93.3,162.5,-170,-170,162.5,,100,M,Дмитрий Беняш,B,162.5
Yes,Raw,5,Oleg Danilov,Amateur Open,1977,Russia,99.3,-150,-162.5,162.5,162.5,,100,M,Олег Данилов,B,162.5
Yes,Raw,6,Aleksey Pustovoytov,Amateur Open,1984,Russia,95.7,160,-165,-165,160,,100,M,Алексей Пустовойтов,B,160
Yes,Raw,7,Oleg Komlev,Amateur Open,1980,Russia,91.4,140,150,152.5,152.5,,100,M,Олег Комлев,B,152.5
Yes,Raw,8,Kuznetsov,Amateur Open,1981,Russia,95.7,-135,140,150,150,,100,M,Кузнецов,B,150
Yes,Raw,9,Vladimir Nechitaylov,Amateur Open,1985,Russia,97.6,-140,150,-162.5,150,,100,M,Владимир Нечитайлов,B,150
Yes,Raw,10,Sergey Lukinov,Amateur Open,1988,Russia,95,135,140,147.5,147.5,,100,M,Сергей Лукинов,B,147.5
Yes,Raw,11,Aleksandr Zotov,Amateur Open,1986,Russia,93.5,140,145,-147.5,145,,100,M,Александр Зотов,B,145
Yes,Raw,12,Kirill Myakotin,Amateur Open,1984,Russia,95.2,140,-145,145,145,,100,M,Кирилл Мякотин,B,145
Yes,Raw,13,Dmitriy Myasin,Amateur Open,1984,Russia,91.8,130,-140,140,140,,100,M,Дмитрий Мясин,B,140
Yes,Raw,14,Gleb Kiselev,Amateur Open,1984,Russia,96.5,-140,140,-150,140,,100,M,Глеб Киселев,B,140
Yes,Raw,15,Mikhail Solntsev,Amateur Open,1980,Russia,98.3,132.5,-140,-140,132.5,,100,M,Михаил Солнцев,B,132.5
Yes,Raw,16,Denis Lobanov,Amateur Open,1986,Russia,98.3,132.5,-140,-140,132.5,,100,M,Денис Лобанов,B,132.5
Yes,Raw,17,Ruslan Novikov,Amateur Open,1988,Russia,97.6,120,122.5,125,125,,100,M,Руслан Новиков,B,125
Yes,Raw,DQ,Aleksandr Kochetkov,Amateur Open,1976,Russia,99.3,-150,-162.5,-162.5,,,100,M,Александр Кочетков,B,
Yes,Raw,1,Sergey Matveev,Amateur Masters 40-44,1973,Russia,98.3,180,-187.5,187.5,187.5,,100,M,Сергей Матвеев,B,187.5
Yes,Raw,2,Vladimir Oleksenko,Amateur Masters 40-44,1971,Russia,93.1,170,-180,180,180,,100,M,Владимир Олексенко,B,180
Yes,Raw,3,Valeriy Korenkov,Amateur Masters 40-44,1972,Russia,97.3,140,165,-185,165,,100,M,Валерий Кореньков,B,165
Yes,Raw,4,Oleg Veklenko,Amateur Masters 40-44,1973,Russia,92.9,157.5,-162.5,162.5,162.5,,100,M,Олег Векленко,B,162.5
Yes,Raw,5,Roman Samokhin,Amateur Masters 40-44,1970,Russia,94.6,140,145,150,150,,100,M,Роман Самохин,B,150
Yes,Raw,6,Sergey Polubinskiy,Amateur Masters 40-44,1971,Russia,97,-140,145,-150,145,,100,M,Сергей Полубинский,B,145
Yes,Raw,7,Aleksandr Vasilyev,Amateur Masters 40-44,1972,Russia,97.9,130,140,145,145,,100,M,Александр Васильев,B,145
Yes,Raw,8,Aleksandr Vlasenko,Amateur Masters 40-44,1972,Russia,96,-142.5,-142.5,142.5,142.5,,100,M,Александр Власенко,B,142.5
Yes,Raw,1,Mikhail Andaburskiy,Amateur Masters 45-49,1966,Russia,96.5,-150,-150,150,150,,100,M,Михаил Андабурский,B,150
Yes,Raw,2,Valeriy Terentyev,Amateur Masters 45-49,1966,Russia,98.2,135,140,142.5,142.5,,100,M,Валерий Терентьев,B,142.5
Yes,Raw,3,Aleksandr Mishustin,Amateur Masters 45-49,1964,Russia,98.5,135,142.5,-150,142.5,,100,M,Александр Мишустин,B,142.5
Yes,Raw,4,Yuriy Lyubach,Amateur Masters 45-49,1968,Russia,94.6,125,130,-140,130,,100,M,Юрий Любач,B,130
Yes,Raw,1,Oleg Pivovarov,Amateur Masters 50-54,1963,Russia,98.9,155,160,-162.5,160,,100,M,Олег Пивоваров,B,160
Yes,Raw,1,Mikhail Prokopov,Amateur Masters 55-59,1956,Russia,96.1,145,150,155,155,,100,M,Михаил Прокопов,B,155
Yes,Raw,1,Vladimir Li,Amateur Masters 60-64,1951,Russia,97.7,135,-140,-140,135,,100,M,Владимир Ли,B,135
Yes,Raw,1,Gennadiy Obmelyukhin,Amateur Masters 65-69,1948,Russia,92.4,105,115,-120,115,,100,M,Геннадий Обмелюхин,B,115
Yes,Raw,1,Nikita Babik,Amateur Teen 18-19,1994,Russia,104,140,147.5,-152.5,147.5,,110,M,Никита Бабик,B,147.5
Yes,Raw,1,Dmitriy Biryukov,Amateur Juniors 20-23,1991,Russia,108.5,195,205,-212.5,205,,110,M,Дмитрий Бирюков,B,205
Yes,Raw,2,Ruslan Kulebyakin,Amateur Juniors 20-23,1991,Russia,107.2,170,175,180,180,,110,M,Руслан Кулебякин,B,180
Yes,Raw,3,Evgeniy Talygin,Amateur Juniors 20-23,1991,Russia,103.2,-150,160,-170,160,,110,M,Евгений Талыгин,B,160
Yes,Raw,1,Pavel Zhurakhovskiy,Amateur Open,1988,Russia,109.4,190,200,-205,200,,110,M,Павел Жураховский,B,200
Yes,Raw,2,Ivan Regulyarnyy,Amateur Open,1984,Russia,107.8,-175,-180,180,180,,110,M,Иван Регулярный,B,180
Yes,Raw,3,Andrey Perov,Amateur Open,1975,Russia,105.8,162.5,167.5,-170,167.5,,110,M,Андрей Перов,B,167.5
Yes,Raw,4,Sergey Marchenko,Amateur Open,1982,Russia,106.2,160,167.5,-175,167.5,,110,M,Сергей Марченко,B,167.5
Yes,Raw,5,Vadim Pronin,Amateur Open,1979,Russia,107.1,150,160,-167.5,160,,110,M,Вадим Пронин,B,160
Yes,Raw,6,Sergey Povstanyuk,Amateur Open,1985,Russia,108.1,157.5,-162.5,-162.5,157.5,,110,M,Сергей Повстанюк,B,157.5
Yes,Raw,7,Roman Silinenkov,Amateur Open,1978,Russia,109.4,155,-167.5,-167.5,155,,110,M,Роман Силиненков,B,155
Yes,Raw,8,Gleb Kireev,Amateur Open,1988,Russia,107,-147.5,147.5,-152.5,147.5,,110,M,Глеб Киреев,B,147.5
Yes,Raw,9,Artem Barashyan,Amateur Open,1989,Russia,107.8,135,-147.5,-147.5,135,,110,M,Артем Барашьян,B,135
Yes,Raw,DD,Aleksey Belash,Amateur Open,1982,Russia,103.4,-167.5,-167.5,167.5,167.5,,110,M,Алексей Белаш,B,
Yes,Raw,1,Yuriy Sobolev #1,Amateur Masters 40-44,1971,Russia,101.6,170,-175,175,175,,110,M,Юрій Соболєв,B,175
Yes,Raw,2,Denis Borozna,Amateur Masters 40-44,1972,Russia,109.8,172.5,-180,-180,172.5,,110,M,Денис Борозна,B,172.5
Yes,Raw,1,Evgeniy Veles,Amateur Masters 45-49,1968,Russia,108.7,170,177.5,185,185,,110,M,Евгений Велес,B,185
Yes,Raw,2,Viktor Nikiforov,Amateur Masters 45-49,1967,Russia,110,-135,140,-145,140,,110,M,Виктор Никифоров,B,140
Yes,Raw,1,Sergey Filinovich,Amateur Masters 50-54,1962,Russia,100.5,-150,165,-172.5,165,,110,M,Сергей Филинович,B,165
Yes,Raw,2,Shakro Uznadze,Amateur Masters 50-54,1962,Russia,107.1,-160,160,-167.5,160,,110,M,Шакро Узнадзе,B,160
Yes,Raw,3,Andrey Skorobogatko,Amateur Masters 50-54,1963,Russia,109.2,140,150,-155,150,,110,M,Андрей Скоробогатько,B,150
Yes,Raw,4,Vladimir Chubarov,Amateur Masters 50-54,1964,Russia,110,135,-147.5,-152.5,135,,110,M,Владимир Чубаров,B,135
Yes,Raw,1,Sergey Dyakonov,Amateur Masters 55-59,1957,Russia,102.2,147.5,-152.5,-152.5,147.5,,110,M,Сергей Дьяконов,B,147.5
Yes,Raw,2,Nikolay Milovanov,Amateur Masters 55-59,1957,Russia,109.2,130,-135,,130,,110,M,Николай Милованов,B,130
Yes,Raw,1,Valeriy Fedyaev,Amateur Masters 60-64,1951,Russia,100.5,110,115,-120,115,,110,M,Валерий Федяев,B,115
Yes,Raw,1,Georgiy Yuryev,Amateur Juniors 20-23,1993,Russia,122.2,180,185,-190,185,,125,M,Георгий Юрьев,B,185
Yes,Raw,2,Oleg Vashkin,Amateur Juniors 20-23,1994,Russia,118.1,170,-177.5,-177.5,170,,125,M,Олег Вашкин,B,170
Yes,Raw,3,Sergey Sventitskiy,Amateur Juniors 20-23,1994,Russia,118.3,145,152.5,-177.5,152.5,,125,M,Сергей Свентицкий,B,152.5
Yes,Raw,1,Aleksandr Andreev,Amateur Open,1977,Russia,123.7,210,215,222.5,222.5,,125,M,Александр Андреев,B,222.5
Yes,Raw,2,Evgeniy Baranov,Amateur Open,1982,Russia,121,185,200,-202.5,200,,125,M,Евгений Баранов,B,200
Yes,Raw,3,Vladimir Seleznev,Amateur Open,1977,Russia,121.5,160,-165,-165,160,,125,M,Владимир Селезнев,B,160
Yes,Raw,4,Andrey Chernyshev,Amateur Open,1981,Russia,119.5,140,152.5,-155,152.5,,125,M,Андрей Чернышев,B,152.5
Yes,Raw,5,Dmitriy Ivasenko,Amateur Open,1976,Russia,122.6,140,-152.5,-152.5,140,,125,M,Дмитрий Ивасенко,B,140
Yes,Raw,1,Vladimir Kotov,Amateur Masters 40-44,1973,Russia,117.5,152.5,-160,-160,152.5,,125,M,Владимир Котов,B,152.5
Yes,Raw,2,Sergey Gershtanskiy,Amateur Masters 40-44,1974,Russia,110.9,142.5,147.5,-150,147.5,,125,M,Сергей Герштанский,B,147.5
Yes,Raw,1,Mikhail Grigorenko,Amateur Masters 45-49,1968,Russia,114.7,-172.5,175,-177.5,175,,125,M,Михаил Григоренко,B,175
Yes,Raw,2,Evgeniy Prosolov,Amateur Masters 45-49,1968,Russia,113.9,170,-177.5,-177.5,170,,125,M,Евгений Просолов,B,170
Yes,Raw,1,Sergey Babik,Amateur Masters 50-54,1961,Russia,123.5,140,147.5,-152.5,147.5,,125,M,Сергей Бабик,B,147.5
Yes,Raw,1,Daniil Krasilnikov,Amateur Juniors 20-23,1991,Russia,128.9,182.5,185,-195,185,,140,M,Даниил Красильников,B,185
Yes,Raw,1,Mikhail Mazurkevich,Amateur Open,1982,Russia,131.1,157.5,-162.5,-162.5,157.5,,140,M,Михаил Мазуркевич,B,157.5
Yes,Raw,1,Boris Trofimov,Amateur Masters 40-44,1972,Russia,143.2,215,220,-225,220,,140+,M,Борис Трофимов,B,220
Yes,Raw,2,Stanislav Karpov,Amateur Masters 40-44,1971,Russia,155.3,205,-210,-210,205,,140+,M,Станислав Карпов,B,205
Yes,Single-ply,1,Tatyana Lazukova,Amateur Masters 50-54,1963,Russia,55.5,52.5,60,-67.5,60,,56,F,Татьяна Лазукова,B,60
Yes,Single-ply,1,Andrey Dezhin,Amateur Juniors 20-23,1992,Russia,66.2,135,142.5,-145,142.5,,67.5,M,Андрей Дежин,B,142.5
Yes,Single-ply,1,Andrey Dezhin,Amateur Open,1992,Russia,66.2,135,142.5,-145,142.5,,67.5,M,Андрей Дежин,B,142.5
Yes,Single-ply,1,Igor Filippov,Amateur Open,1984,Russia,74.3,135,-147.5,-147.5,135,,75,M,Игорь Филиппов,B,135
Yes,Single-ply,DQ,Pavel Zubkov,Amateur Open,1985,Russia,70.6,-140,-140,-140,,,75,M,Павел Зубков,B,
Yes,Single-ply,1,Yuriy Tarbonov,Amateur Open,1987,Russia,81.1,202,210,-212.5,210,,82.5,M,Юрий Тарбонов,B,210
Yes,Single-ply,2,Vladimir Kulakov,Amateur Open,1955,Russia,77.7,87.5,95,-102.5,95,,82.5,M,Владимир Кулаков,B,95
Yes,Single-ply,1,Vladimir Kulakov,Amateur Masters 55-59,1955,Russia,77.7,87.5,95,-102.5,95,,82.5,M,Владимир Кулаков,B,95
Yes,Single-ply,1,Andrey Karpov,Amateur Open,1985,Russia,87.1,170,175,-180,175,,90,M,Андрей Карпов,B,175
Yes,Single-ply,2,Anton Sosunov,Amateur Open,1980,Russia,83.9,160,165,-170,165,,90,M,Антон Сосунов,B,165
Yes,Single-ply,3,Yuriy Golubkov,Amateur Open,1985,Russia,86.8,100,105,,105,,90,M,Юрий Голубков,B,105
Yes,Single-ply,DQ,Aleksey Ivanov,Amateur Open,1975,Russia,86.5,-140,,,,,90,M,Алексей Иванов,B,
Yes,Single-ply,DQ,Vladimir Krasanov,Amateur Open,1980,Russia,87.6,-150,-150,-150,,,90,M,Владимир Красанов,B,
Yes,Single-ply,1,Mikhail Sviryuev,Amateur Open,1983,Russia,97.1,215,-225,-225,215,,100,M,Михаил Свирюев,B,215
Yes,Single-ply,2,Aleksandr Evsyutkin,Amateur Open,1988,Russia,95.3,160,-170,170,170,,100,M,Александр Евсюткин,B,170
Yes,Single-ply,3,Ivan Semenov,Amateur Open,1978,Russia,95.1,155,-160,162.5,162.5,,100,M,Иван Семенов,B,162.5
Yes,Single-ply,4,Ivan Rak,Amateur Open,1974,Russia,99.6,150,-160,,150,,100,M,Иван Рак,B,150
Yes,Single-ply,1,Vladimir Lyubov,Amateur Masters 40-44,1971,Russia,98.9,160,170,-175,170,,100,M,Владимир Любов,B,170
Yes,Single-ply,1,Konstantin Kryzhanovskiy,Amateur Open,1975,Russia,106.7,220,230,240,240,,110,M,Константин Крыжановский,B,240
Yes,Multi-ply,1,Konstantin Alekseychuk,Amateur Open,1988,Russia,74.9,130,140,,140,,75,M,Константин Алексейчук,B,140
Yes,Multi-ply,1,Evgeniy Pivovarov,Amateur Open,1988,Russia,89.1,200,210,-220,210,,90,M,Евгений Пивоваров,B,210
Yes,Multi-ply,1,Mikhail Abrashkin,Amateur Open,1983,Russia,108.1,260,270,280,280,,110,M,Михаил Абрашкин,B,280
Yes,Multi-ply,1,Aleksandr Medvedev,Amateur Masters 40-44,1971,Russia,103.7,210,220,230,230,,110,M,Александр Медведев,B,230
Yes,Multi-ply,DQ,Vasiliy Filatov,Amateur Open,1986,Russia,120.8,-270,-270,,,,125,M,Василий Филатов,B,
No,Raw,1,Viktoriya Klementyeva,Pro Juniors 20-23,1994,Russia,51,60,-65,-67.5,60,,52,F,Виктория Клементьева,B,60
No,Raw,1,Ekaterina Aganina,Pro Juniors 20-23,1993,Russia,59.9,50,,-55,50,,60,F,Екатерина Аганина,B,50
No,Raw,1,Nadezhda Vlasova,Pro Open,1982,Russia,59.5,92.5,97.5,-100,97.5,,60,F,Надежда Власова,B,97.5
No,Raw,1,Alena Belozerova,Pro Open,1986,Russia,62.3,50,-52.5,-52.5,50,,67.5,F,Алена Белозерова,B,50
No,Raw,1,Marina Sinotova,Pro Open,1988,Russia,68.5,60,65,67.5,67.5,,75,F,Марина Синотова,B,67.5
No,Raw,1,Olga Gavrilova,Pro Masters 50-54,1960,Russia,89.8,55,57.5,-60,57.5,,90,F,Ольга Гаврилова,B,57.5
No,Raw,1,Irina Yaroshenko,Pro Open,1986,Russia,97.3,70,80,85,85,,90+,F,Ирина Ярошенко,B,85
No,Raw,1,Sergey Buryakov,Pro Open,1977,Russia,61.3,90,92.5,95,95,,67.5,M,Сергей Буряков,B,95
No,Raw,DQ,Ararat Gulyan,Pro Open,1989,Russia,65.9,-115,,,,,67.5,M,Арарат Гулян,B,
No,Raw,1,Ilya Kuvshinov,Pro Teen 13-15,1999,Russia,68.5,90,95,-100,95,,75,M,Илья Кувшинов,B,95
No,Raw,1,Vladislav Eroshenko,Pro Juniors 20-23,1993,Russia,72.7,100,105,110,110,,75,M,Владислав Ерошенко,B,110
No,Raw,1,Artur Belous,Pro Open,1987,Russia,74.6,175,185,-190,185,,75,M,Артур Белоус,B,185
No,Raw,2,Aleksandr Rabinovich,Pro Open,1967,Israel,73.8,150,160,165,165,,75,M,,B,165
No,Raw,DQ,Viktor Kopaev,Pro Open,1990,Russia,71.8,-140,-140,-140,,,75,M,Виктор Копаев,B,
No,Raw,1,Aleksandr Rabinovich,Pro Masters 45-49,1967,Israel,73.8,150,160,165,165,,75,M,,B,165
No,Raw,1,Fedor Yudin,Pro Teen 16-17,1997,Russia,82.3,-80,85,95,95,,82.5,M,Федор Юдин,B,95
No,Raw,1,Aleksey Veresov,Pro Juniors 20-23,1994,Russia,81.5,140,147.5,-155,147.5,,82.5,M,Алексей Вересов,B,147.5
No,Raw,1,Dmitriy Trofimov,Pro Open,1972,Russia,82,160,170,177.5,177.5,,82.5,M,Дмитрий Трофимов,B,177.5
No,Raw,2,Dmitriy Krotov,Pro Open,1976,Russia,78.4,170,-177.5,-177.5,170,,82.5,M,Дмитрий Кротов,B,170
No,Raw,3,Maksim Baukin,Pro Open,1981,Russia,81.3,160,165,-170,165,,82.5,M,Максим Баукин,B,165
No,Raw,4,Dmitriy Glukhov,Pro Open,1989,Russia,82.5,160,-170,-170,160,,82.5,M,Дмитрий Глухов,B,160
No,Raw,DQ,Aleksey Schegolev,Pro Open,1983,Russia,80.8,-125,-130,-130,,,82.5,M,Алексей Щеголев,B,
No,Raw,1,Dmitriy Trofimov,Pro Masters 40-44,1972,Russia,82,160,170,177.5,177.5,,82.5,M,Дмитрий Трофимов,B,177.5
No,Raw,2,Igor Zakharov,Pro Masters 40-44,1969,Russia,81.2,115,122.5,130,130,,82.5,M,Игорь Захаров,B,130
No,Raw,1,Aleksey Molochkov,Pro Masters 50-54,1962,Russia,81.7,142.5,147.5,-150,147.5,,82.5,M,Алексей Молочков,B,147.5
No,Raw,1,Sergey Goncharov,Pro Masters 60-64,1952,Russia,80.4,110,115,120,120,,82.5,M,Сергей Гончаров,B,120
No,Raw,1,Ivan Ivanov #13,Pro Teen 16-17,1997,Russia,85.4,125,130,135,135,,90,M,Иван Иванов,B,135
No,Raw,2,Nikita Popov,Pro Teen 16-17,1996,Russia,86.8,105,-115,-115,105,,90,M,Никита Попов,B,105
No,Raw,1,Ashot Oganesyan,Pro Juniors 20-23,1991,Russia,86.1,170,-180,180,180,,90,M,Ашот Оганесян,B,180
No,Raw,2,Igor Pyltsin,Pro Juniors 20-23,1992,Russia,88.8,160,-180,-180,160,,90,M,Игорь Пыльцин,B,160
No,Raw,3,Anton Shemarin,Pro Juniors 20-23,1991,Russia,84.9,110,125,140,140,,90,M,Антон Шемарин,B,140
No,Raw,4,Aleksandr Baranov,Pro Juniors 20-23,1991,Russia,87.3,130,135,-140,135,,90,M,Александр Баранов,B,135
No,Raw,1,Denis Nikitin,Pro Open,1988,Russia,89,200,215,225,225,,90,M,Денис Никитин,B,225
No,Raw,2,Artur Shalushkin,Pro Open,1988,Russia,86.4,180,187.5,-192.5,187.5,,90,M,Артур Шалушкин,B,187.5
No,Raw,3,Dmitriy Prozorov,Pro Open,1985,Russia,88.6,180,185,-190,185,,90,M,Дмитрий Прозоров,B,185
No,Raw,4,Ilya Kutsurov,Pro Open,1977,Russia,84.6,160,170,-180,170,,90,M,Илья Куцуров,B,170
No,Raw,5,Roman Schekleev,Pro Open,1989,Russia,88.6,162.5,167.5,-172.5,167.5,,90,M,Роман Щеклеев,B,167.5
No,Raw,6,Viktor Scherbakov,Pro Open,1985,Russia,83.7,150,-160,-165,150,,90,M,Виктор Щербаков,B,150
No,Raw,7,Aleksey Evstropov,Pro Open,1981,Russia,87.1,140,150,-157.5,150,,90,M,Алексей Евстропов,B,150
No,Raw,DQ,Sergey Komkov,Pro Open,1987,Russia,89.1,-180,,,,,90,M,Сергей Комков,B,
No,Raw,1,Mikhail Solomatin,Pro Masters 40-44,1970,Russia,88,165,170,-175,170,,90,M,Михаил Соломатин,B,170
No,Raw,2,Igor Vyunov,Pro Masters 40-44,1971,Russia,88.7,160,170,-180,170,,90,M,Игорь Вьюнов,B,170
No,Raw,1,Dmitriy Semenov,Pro Masters 45-49,1965,Russia,89.4,145,-150,150,150,,90,M,Дмитрий Семенов,B,150
No,Raw,1,Ashot Dovmalyan,Pro Juniors 20-23,1990,Russia,95.6,-165,,180,180,,100,M,Ашот Довмалян,B,180
No,Raw,2,Denis Ponomarenko,Pro Juniors 20-23,1992,Russia,98.5,165,-170,170,170,,100,M,Денис Пономаренко,B,170
No,Raw,DQ,Vladislav Popov,Pro Juniors 20-23,1993,Russia,96.8,-180,,-180,,,100,M,Владислав Попов,B,
No,Raw,1,Ibragim Hamhoev,Pro Open,1985,Russia,99.6,205,210,-225,210,,100,M,Ибрагим Хамхоев,B,210
No,Raw,2,Ruslan Kachanov,Pro Open,1970,Russia,98.5,200,-207.5,207.5,207.5,,100,M,Руслан Качанов,B,207.5
No,Raw,3,Sergey Smigunov,Pro Open,1984,Russia,98.3,195,205,-210,205,,100,M,Сергей Смигунов,B,205
No,Raw,4,Aleksey Stolyarov,Pro Open,1986,Russia,99,-195,-200,200,200,,100,M,Алексей Столяров,B,200
No,Raw,5,Ivan Savelyev,Pro Open,1988,Russia,98.1,190,,195,195,,100,M,Иван Савельев,B,195
No,Raw,6,Aleksandr Kalyagin,Pro Open,1983,Russia,99.3,185,190,195,195,,100,M,Александр Калягин,B,195
No,Raw,7,Sergey Timchenko,Pro Open,1979,Russia,91.7,-190,190,-200,190,,100,M,Сергей Тимченко,B,190
No,Raw,8,Evgeniy Boytsov,Pro Open,1988,Russia,95.7,-190,190,-200,190,,100,M,Евгений Бойцов,B,190
No,Raw,9,Evgeny Lukoyanov,Pro Open,1982,Russia,99,170,180,-190,180,,100,M,Евгений Лукоянов,B,180
No,Raw,10,Denis Borisov,Pro Open,1977,Russia,98.2,170,-180,-180,170,,100,M,Денис Борисов,B,170
No,Raw,11,Mikhail Mosin,Pro Open,1977,Russia,97.8,-165,165,,165,,100,M,Михаил Мосин,B,165
No,Raw,12,Bogdan Mikhayletskiy,Pro Open,1986,Russia,99.3,165,,-190,165,,100,M,Богдан Михайлецкий,B,165
No,Raw,13,Aleksey Sautin,Pro Open,1976,Russia,97.6,160,,-170,160,,100,M,Алексей Саутин,B,160
No,Raw,DQ,Dmitriy Osipov,Pro Open,1977,Russia,98.9,-165,-165,-165,,,100,M,Дмитрий Осипов,B,
No,Raw,1,Ruslan Kachanov,Pro Masters 40-44,1970,Russia,98.5,200,-207.5,207.5,207.5,,100,M,Руслан Качанов,B,207.5
No,Raw,2,Konstantin Pasechnik,Pro Masters 40-44,1972,Russia,96.5,185,192.5,195,195,,100,M,Константин Пасечник,B,195
No,Raw,3,Vladislav Duminika,Pro Masters 40-44,1972,Russia,94.6,170,-175,175,175,,100,M,Владислав Думиника,B,175
No,Raw,1,Normunds Sproģis,Pro Masters 45-49,1965,Latvia,95.8,195,205,210,210,,100,M,,B,210
No,Raw,1,Alexander Petrov,Pro Masters 50-54,1960,Russia,92.4,185,195,202.5,202.5,,100,M,Александр Петров,B,202.5
No,Raw,1,Vitaliy Ponomarev,Pro Masters 55-59,1957,Russia,99.4,190,200,205,205,-213,100,M,Виталий Пономарев,B,205
No,Raw,1,Artem Kobanov,Pro Juniors 20-23,1992,Russia,109.3,212.5,220,-230,220,,110,M,Артем Кобанов,B,220
No,Raw,2,Nizami Tagiev,Pro Juniors 20-23,1991,Russia,103.7,200,-205,-205,200,,110,M,Низами Тагиев,B,200
No,Raw,3,Marat Savosin,Pro Juniors 20-23,1990,Russia,107.3,185,-192.5,,185,,110,M,Марат Савосин,B,185
No,Raw,4,Anton Borovkov,Pro Juniors 20-23,1991,Russia,107.4,160,172.5,175,175,,110,M,Антон Боровков,B,175
No,Raw,1,Ivan Danilenko,Pro Open,1981,Russia,110,245,255,-257.5,255,,110,M,Иван Даниленко,B,255
No,Raw,2,Dmitriy Tenetko,Pro Open,1975,Russia,110,245,-260,,245,,110,M,Дмитрий Тенетко,B,245
No,Raw,3,Maksim Lisyutin,Pro Open,1985,Russia,108,210,220,-227.5,220,,110,M,Максим Лисютин,B,220
No,Raw,4,Igor Saley,Pro Open,1975,Belarus,109.5,200,207.5,-212.5,207.5,,110,M,,B,207.5
No,Raw,5,Denis Solokhin,Pro Open,1981,Russia,107.7,-180,185,197.5,197.5,,110,M,Денис Солохин,B,197.5
No,Raw,DQ,Denis Mochalovskiy,Pro Open,1984,Russia,105.2,-197.5,-197.5,-197.5,,,110,M,Денис Мочаловский,B,
No,Raw,1,Viktor Maslyuk,Pro Masters 40-44,1974,Russia,104.9,175,-180,180,180,,110,M,Виктор Маслюк,B,180
No,Raw,1,Igor Lipachev,Pro Masters 45-49,1968,Russia,107.1,215,222.5,227.5,227.5,232.5,110,M,Игорь Липачев,B,227.5
No,Raw,1,Vyacheslav Filin,Pro Masters 50-54,1961,Russia,106.4,185,190,-195,190,,110,M,Вячеслав Филин,B,190
No,Raw,2,Igor Kurotchenko,Pro Masters 50-54,1962,Russia,106.6,140,-145,-145,140,,110,M,Игорь Куротченко,B,140
No,Raw,1,Vladimir Druker,Pro Masters 60-64,1950,Russia,108.9,140,150,-155,150,,110,M,Владимир Друкер,B,150
No,Raw,DQ,Dmitriy Frank,Pro Teen 18-19,1994,Russia,115.3,-190,,-190,,,125,M,Дмитрий Франк,B,
No,Raw,1,Anatoliy Serbin,Pro Juniors 20-23,1990,Russia,116.2,225,235,245,245,,125,M,Анатолий Сербин,B,245
No,Raw,2,Yuriy Lazarev,Pro Juniors 20-23,1991,Russia,120.4,-207.5,207.5,-215,207.5,,125,M,Юрий Лазарев,B,207.5
No,Raw,1,Pavel Myasoedko,Pro Open,1977,Belarus,110.5,255,260,267.5,267.5,,125,M,,B,267.5
No,Raw,2,Sergey Zimin,Pro Open,1972,Russia,123,-225,232.5,-235,232.5,,125,M,Сергей Зимин,B,232.5
No,Raw,3,Yuriy Gavryushin,Pro Open,1983,Russia,117.7,220,-230,-235,220,,125,M,Юрий Гаврюшин,B,220
No,Raw,4,Anton Matveev,Pro Open,1971,Russia,118.6,220,-230,,220,,125,M,Антон Матвеев,B,220
No,Raw,5,Dmitriy Kostin,Pro Open,1985,Russia,120.2,210,215,-222.5,215,,125,M,Дмитрий Костин,B,215
No,Raw,6,Vladislav Gladskikh,Pro Open,1976,Russia,122.5,180,-207.5,-207.5,180,,125,M,Владислав Гладских,B,180
No,Raw,DQ,Arseniy Niazashvili,Pro Open,1970,Russia,114.1,-187.5,-187.5,-190,,,125,M,Арсений Ниазашвили,B,
No,Raw,DQ,Evgeniy Vasilyev,Pro Open,1982,Russia,118.7,-215,-220,-222.5,,,125,M,Евгений Васильев,B,
No,Raw,1,Sergey Zimin,Pro Masters 40-44,1972,Russia,123,-225,232.5,-235,232.5,,125,M,Сергей Зимин,B,232.5
No,Raw,2,Vadim Pchelkin,Pro Masters 40-44,1971,Russia,118.9,190,200,-207.5,200,,125,M,Вадим Пчелкин,B,200
No,Raw,3,Igor Shik,Pro Masters 40-44,1971,Russia,111.2,180,190,-200,190,,125,M,Игорь Шик,B,190
No,Raw,1,Vladimir Shevchuk,Pro Masters 45-49,1966,Russia,113.8,135,-150,155,155,,125,M,Владимир Шевчук,B,155
No,Raw,1,Anton Privalov,Pro Open,1986,Russia,128.4,195,-207.5,215,215,,140,M,Антон Привалов,B,215
No,Raw,2,Viktor Krylov,Pro Open,1985,Russia,130,210,-215,215,215,,140,M,Виктор Крылов,B,215
No,Raw,3,Dmitriy Kuleshov,Pro Open,1977,Russia,131,180,195,200,200,,140,M,Дмитрий Кулешов,B,200
No,Raw,4,Oleg Kozel,Pro Open,1977,Belarus,125.1,187.5,-195,-195,187.5,,140,M,,B,187.5
No,Multi-ply,1,Aleksandr Fedorov,Pro Open,1976,Russia,66.8,145,150,,150,,67.5,M,Александр Федоров,B,150
No,Multi-ply,1,Aleksey Schipanov,Pro Open,1980,Russia,71,135,140,145,145,,75,M,Алексей Щипанов,B,145
No,Multi-ply,2,Roman Korshunov,Pro Open,1980,Russia,74.9,145,-150,-150,145,,75,M,Роман Коршунов,B,145
No,Multi-ply,1,Igor Kalyta,Pro Open,1982,Russia,96.6,-270,270,-280,270,,100,M,Игорь Калыта,B,270
No,Multi-ply,2,Roman Terekhov,Pro Open,1981,Russia,99.8,-185,185,195,195,,100,M,Роман Терехов,B,195
No,Multi-ply,1,Dmitriy Postnov,Pro Masters 40-44,1971,Russia,92,-140,,140,140,,100,M,Дмитрий Постнов,B,140
No,Multi-ply,1,Alexander Petrov,Pro Masters 50-54,1960,Russia,92.4,240,-250,-262.5,240,,100,M,Александр Петров,B,240
No,Multi-ply,1,Nikolay Alyshev,Pro Open,1985,Russia,106.3,-270,270,-280,270,,110,M,Николай Алышев,B,270
No,Multi-ply,2,Mikhail Royanov,Pro Open,1977,Russia,103,245,-255,255,255,,110,M,Михаил Роянов,B,255
No,Multi-ply,3,Maksim Stepanov #4,Pro Open,1988,Russia,108.6,-225,225,-230,225,,110,M,Максим Степанов,B,225
No,Multi-ply,4,Andrey Drozhzhin,Pro Open,1977,Russia,106.9,200,210,,210,,110,M,Андрей Дрожжин,B,210
No,Multi-ply,1,Viktor Maslyuk,Pro Masters 40-44,1974,Russia,104.9,-210,210,-215,210,,110,M,Виктор Маслюк,B,210
No,Multi-ply,1,Dmitry Gorbachev,Pro Open,1970,Russia,115.8,310,-320,-320,310,,125,M,Дмитрий Горбачев,B,310
No,Multi-ply,1,Aleksey Ventsov,Pro Open,1980,Russia,120.7,-240,-250,250,250,,125,M,Алексей Венцов,B,250
No,Single-ply,1,Ilya Yunyushkin,Pro Open,1983,Russia,65,120,130,-137.5,130,,67.5,M,Илья Юнюшкин,B,130
No,Single-ply,1,Nikolay Sokolov,Pro Open,1979,Russia,74.8,232.5,-240,-240,232.5,,75,M,Николай Соколов,B,232.5
No,Single-ply,1,Aleksandr Krasutskiy,Pro Juniors 20-23,1990,Russia,80.2,-175,175,-182.5,175,,82.5,M,Александр Красуцкий,B,175
No,Single-ply,1,Yuriy Churin,Pro Masters 40-44,1971,Russia,76.8,185,195,-205,195,,82.5,M,Юрий Чурин,B,195
No,Single-ply,1,Arseniy Mikhaylenko,Pro Open,1987,Russia,88.5,-215,215,220,220,,90,M,Арсений Михайленко,B,220
No,Single-ply,2,Maksim Yashkin,Pro Open,1979,Russia,88.5,210,-225,-225,210,,90,M,Максим Яшкин,B,210
No,Single-ply,3,Sergey Komkov,Pro Open,1987,Russia,89.1,180,187.5,-190,187.5,,90,M,Сергей Комков,B,187.5
No,Single-ply,4,Dmitriy Zaytsev,Pro Open,1981,Russia,87,162.5,167.5,-175,167.5,,90,M,Дмитрий Зайцев,B,167.5
No,Single-ply,5,Igor Aleshin,Pro Open,1987,Russia,87,150,155,-160,155,,90,M,Игорь Алешин,B,155
No,Single-ply,DQ,Artem Pechnyakov,Pro Open,1988,Russia,90,-200,-200,-200,,,90,M,Артем Печняков,B,
No,Single-ply,1,Aleksandr Shabrov,Pro Juniors 20-23,1991,Russia,96.1,200,210,-220,210,,100,M,Александр Шабров,B,210
No,Single-ply,1,Marat Abdullin,Pro Open,1985,Russia,97.9,300,-315,-317.5,300,,100,M,Марат Абдуллин,B,300
No,Single-ply,2,Sergey Mokhov,Pro Open,1990,Russia,98.6,240,-250,-250,240,,100,M,Сергей Мохов,B,240
No,Single-ply,1,Aleksey Yagunov,Pro Masters 45-49,1968,Russia,95.7,170,-180,192.5,192.5,,100,M,Алексей Ягунов,B,192.5
No,Single-ply,1,Vitaliy Bobrov,Pro Open,1981,Russia,104.1,250,-262.5,262.5,262.5,,110,M,Виталий Бобров,B,262.5
No,Single-ply,2,Bogdasar Agamalyan,Pro Open,1985,Russia,105.3,220,227.5,-235,227.5,,110,M,Богдасар Агамалян,B,227.5
No,Single-ply,1,Oleg Mironov,Pro Masters 40-44,1973,Russia,103.2,150,170,180,180,,110,M,Олег Миронов,B,180
No,Single-ply,1,Dmitriy Klyuev,Pro Open,1982,Russia,115.9,245,-252.5,-252.5,245,,125,M,Дмитрий Клюев,B,245
No,Single-ply,1,Andrey Aksenov,Pro Juniors 20-23,1992,Russia,130.2,225,-240,240,240,,140,M,Андрей Аксенов,B,240
No,Single-ply,1,Dmitriy Shabalin #1,Pro Open,1969,Russia,138.3,300,-310,-310,300,,140,M,Дмитрий Шабалин,B,300
