Name,CyrillicName,Division,BirthDate,Age,BodyweightKg,WeightClassKg,Sex,Squat1Kg,Squat2Kg,Squat3Kg,Best3SquatKg,Bench1Kg,Bench2Kg,Bench3Kg,Best3BenchKg,Deadlift1Kg,Deadlift2Kg,Deadlift3Kg,Best3DeadliftKg,TotalKg,Event,Equipment,Place
Madina Zharasova,Мадина Жарасова,Pro Juniors 20-23,1993-09-30,22,45.70,48,F,,,,,,,,,-90,-100,-100,,,D,Raw,DQ
Anastasiya Dolgusheva,Анастасия Долгушева,Pro Teen 18-19,1997-07-25,18,55.30,56,F,,,,,,,,,60,75,-85,75,75,D,Raw,1
Yuliya Mikhaylova,Юлия Михайлова,Pro Open,1982-02-18,34,55.10,56,F,,,,,,,,,112.5,122.5,130,130,130,D,Raw,1
Valentina Tretyakova,Валентина Третьякова,Pro Teen 18-19,1997-03-27,19,81.90,82.5,F,,,,,,,,,100,120,130,130,130,D,Raw,1
Nadezhda Laskova,Надежда Ласкова,Pro Open,1983-09-18,32,87.30,90,F,,,,,,,,,110,120,125,125,125,D,Raw,1
Ildar Abdulin,Ильдар Абдулин,Pro Open,1991-07-10,24,57.80,60,M,,,,,,,,,-122.5,125,140,140,140,D,Raw,1
Valeriy Dedkov,Валерий Дедков,Pro Teen 13-15,2000-10-20,15,80.20,82.5,M,,,,,,,,,-110,110,140,140,140,D,Raw,1
Vladislav Trukhin,Владислав Трухин,Pro Juniors 20-23,1994-10-24,21,81.20,82.5,M,,,,,,,,,195,210,222.5,222.5,222.5,D,Raw,1
Aleksandr Sintsov,Александр Синцов,Pro Open,1986-08-24,29,79.40,82.5,M,,,,,,,,,230,-240,-240,230,230,D,Raw,1
Aleksey Koshkin,Алексей Кошкин,Pro Masters 50-54,1964-04-17,51,77.60,82.5,M,,,,,,,,,180,-197.5,,180,180,D,Raw,1
Nail Atnagulov,Наиль Атнагулов,Pro Teen 18-19,1996-10-21,19,84.10,90,M,,,,,,,,,160,180,190,190,190,D,Raw,1
Aleksandr Shmakov,Александр Шмаков,Pro Juniors 20-23,1994-10-04,21,84.20,90,M,,,,,,,,,205,220,-230,220,220,D,Raw,1
Ogannes Karapetyan,Оганнес Карапетян,Pro Open,1985-11-14,30,89.60,90,M,,,,,,,,,240,260,270,270,270,D,Raw,1
Nikolay Kolyuchkin,Николай Колючкин,Pro Open,1967-05-20,48,96.30,100,M,,,,,,,,,220,240,,240,240,D,Raw,1
Aleksey Demidov,Алексей Демидов,Pro Open,1981-04-23,34,93.30,100,M,,,,,,,,,210,220,-225,220,220,D,Raw,2
Nikolay Kolyuchkin,Николай Колючкин,Pro Masters 45-49,1967-05-20,48,96.30,100,M,,,,,,,,,220,240,,240,240,D,Raw,1
Aleksey Morev,Алексей Морев,Pro Masters 45-49,1967-10-20,48,93.10,100,M,,,,,,,,,160,180,200,200,200,D,Raw,2
Mikhail Manakov,Михаил Манаков,Pro Masters 55-59,1957-10-09,58,94.30,100,M,,,,,,,,,150,170,-190,170,170,D,Raw,1
Vyacheslav Kharitonov,Вячеслав Харитонов,Pro Teen 18-19,1997-03-12,19,107.80,110,M,,,,,,,,,210,230,240,240,240,D,Raw,1
Amir Nasrulaev,Амир Насрулаев,Pro Open,1990-08-18,25,107.80,110,M,,,,,,,,,250,270,-280,270,270,D,Raw,1
Vitaliy Karev,Виталий Карев,Pro Open,1991-02-27,25,108.50,110,M,,,,,,,,,247.5,262.5,-272.5,262.5,262.5,D,Raw,2
Vladimir Popov,Владимир Попов,Pro Open,1985-05-30,30,105.80,110,M,,,,,,,,,225,-235,-235,225,225,D,Raw,3
Aleksey Kiselev,Алексей Киселев,Pro Open,1974-04-27,41,110.00,110,M,,,,,,,,,-260,-260,,,,D,Raw,DQ
Aleksandr Solopin,Александр Солопин,Pro Masters 40-44,1971-10-09,44,105.20,110,M,,,,,,,,,210,230,250,250,250,D,Raw,1
Adam Kotiev,Адам Котиев,Pro Open,1971-07-01,44,118.10,125,M,,,,,,,,,270,-290,290,290,290,D,Raw,1
Artur Duruev,Артур Дуруев,Pro Juniors 20-23,1994-07-08,21,137.60,140,M,,,,,,,,,260,280,-300,280,280,D,Raw,1
Yuliya Mikhaylova,Юлия Михайлова,Pro Open,1982-02-18,34,55.10,56,F,,,,,60,65,70,70,,,,,70,B,Raw,1
Nadezhda Laskova,Надежда Ласкова,Pro Open,1983-09-18,32,87.30,90,F,,,,,65,72.5,-77.5,72.5,,,,,72.5,B,Raw,1
Artem Shturmin,Артем Штурмин,Pro Juniors 20-23,1994-08-27,21,73.50,75,M,,,,,-135,135,142.5,142.5,,,,,142.5,B,Raw,1
Nikita Synkov,Никита Сынков,Pro Juniors 20-23,1994-10-24,21,70.10,75,M,,,,,115,120,125,125,,,,,125,B,Raw,2
Sergey Sidorov,Сергей Сидоров,Pro Open,1983-05-28,32,74.40,75,M,,,,,115,120,-125,120,,,,,120,B,Raw,1
Dmitriy Akhmerov,Дмитрий Ахмеров,Pro Open,1991-06-28,24,72.20,75,M,,,,,-130,-140,-140,,,,,,,B,Raw,DQ
Igor Butenko,Игорь Бутенко,Pro Teen 18-19,1996-04-13,19,78.50,82.5,M,,,,,110,115,120,120,,,,,120,B,Raw,1
Nikita Lazarev,Никита Лазарев,Pro Teen 18-19,1996-11-17,19,80.50,82.5,M,,,,,-110,115,-120,115,,,,,115,B,Raw,2
Viktor Samosyuk,Виктор Самосюк,Pro Teen 18-19,1997-02-21,19,82.00,82.5,M,,,,,110,115,-125,115,,,,,115,B,Raw,3
Dmitriy Danilin,Дмитрий Данилин,Pro Juniors 20-23,1994-06-24,21,82.50,82.5,M,,,,,140,147.5,157.5,157.5,,,,,157.5,B,Raw,1
Artem Kozlov,Артем Козлов,Pro Open,1982-03-13,34,81.70,82.5,M,,,,,170,180,185,185,,,,,185,B,Raw,1
Aleksandr Sintsov,Александр Синцов,Pro Open,1986-08-24,29,79.40,82.5,M,,,,,150,160,-165,160,,,,,160,B,Raw,2
Gennadiy Kuritsin,Геннадий Курицин,Pro Open,1989-06-05,26,77.30,82.5,M,,,,,125,130,-135,130,,,,,130,B,Raw,3
Andrey Zvyagintsev,Андрей Звягинцев,Pro Open,1987-06-20,28,81.80,82.5,M,,,,,127.5,-135,-135,127.5,,,,,127.5,B,Raw,4
Aleksey Koshkin,Алексей Кошкин,Pro Masters 50-54,1964-04-17,51,77.60,82.5,M,,,,,-110,110,-115,110,,,,,110,B,Raw,1
Zhoel Mitrofanov,Жоэль Митрофанов,Pro Juniors 20-23,1992-05-18,23,84.60,90,M,,,,,-110,-110,-110,,,,,,,B,Raw,DQ
Kirill Polyakov,Кирилл Поляков,Pro Open,1988-04-19,27,86.00,90,M,,,,,135,-142.5,-142.5,135,,,,,135,B,Raw,1
Vladimir Parshin,Владимир Паршин,Pro Open,1979-03-27,37,88.00,90,M,,,,,,,,,,,,,,B,Raw,DQ
Georgiy Elkanishvili,Георгий Элканишвили,Pro Open,1988-11-01,27,98.40,100,M,,,,,165,170,175,175,,,,,175,B,Raw,1
Dmitriy Rabeev,Дмитрий Рабеев,Pro Open,1982-11-12,33,96.00,100,M,,,,,-157.5,157.5,-165,157.5,,,,,157.5,B,Raw,2
Aleksey Demidov,Алексей Демидов,Pro Open,1981-04-23,34,93.30,100,M,,,,,150,-155,-157.5,150,,,,,150,B,Raw,3
Evgeniy Gromilin,Евгений Громилин,Pro Open,1991-11-01,24,96.20,100,M,,,,,-150,150,-155,150,,,,,150,B,Raw,4
Vadim Yashin,Вадим Яшин,Pro Masters 45-49,1969-04-22,46,96.40,100,M,,,,,,,,,,,,,,B,Raw,DQ
Sergey Zubarev,Сергей Зубарев,Pro Masters 50-54,1963-11-29,52,95.70,100,M,,,,,120,130,135,135,,,,,135,B,Raw,1
Mikhail Manakov,Михаил Манаков,Pro Masters 55-59,1957-10-09,58,94.30,100,M,,,,,120,-130,-130,120,,,,,120,B,Raw,1
Dmitriy Dyakonov,Дмитрий Дьяконов,Pro Open,1988-07-07,27,107.80,110,M,,,,,230,240,-250,240,,,,,240,B,Raw,1
Evgeniy Abrosimov,Евгений Абросимов,Pro Open,1966-09-29,49,107.40,110,M,,,,,185,197.5,-200,197.5,,,,,197.5,B,Raw,2
Viktor Lebedev,Виктор Лебедев,Pro Open,1991-04-11,24,109.20,110,M,,,,,-122.5,-122.5,-122.5,,,,,,,B,Raw,DQ
Andrey Volf,Андрей Вольф,Pro Masters 40-44,1975-01-31,41,103.10,110,M,,,,,145,-155,-155,145,,,,,145,B,Raw,1
Ruben Sarkisov,Рубен Саркисов,Pro Masters 45-49,1968-09-27,47,105.00,110,M,,,,,150,160,172.5,172.5,,,,,172.5,B,Raw,1
Aleksandr Dolgov,Александр Долгов,Pro Open,1974-03-21,42,113.00,125,M,,,,,200,-210,-210,200,,,,,200,B,Raw,1
Artur Duruev,Артур Дуруев,Pro Juniors 20-23,1994-07-08,21,137.60,140,M,-250,-270,270,270,-215,220,230,230,270,290,-300,290,790,SBD,Single-ply,1
Evgeniy Popov,Евгений Попов,Pro Juniors 20-23,1992-11-12,23,140.50,140+,M,-205,205,-210,205,127.5,,,127.5,205,215,220,220,552.5,SBD,Single-ply,1
Lyubov Kananykhina,Любовь Кананыхина,Pro Open,1984-12-08,31,86.20,90,F,90,100,-110,100,40,55,-65,55,110,125,135,135,290.00,SBD,Wraps,1
Aleksandr Velikodanov,Александр Великоданов,Pro Teen 13-15,2000-06-06,15,65.60,67.5,M,110,-120,-120,110,70,75,-80,75,145,160,-170,160,345.00,SBD,Wraps,1
Dmitriy Shipitsin,Дмитрий Шипицин,Pro Teen 16-17,2000-01-16,16,66.60,67.5,M,90,100,105,105,70,75,80,80,-115,120,135,135,320.00,SBD,Wraps,1
Ivan Smorodin,Иван Смородин,Pro Juniors 20-23,1994-09-25,21,65.50,67.5,M,110,115,-125,115,110,115,-120,115,150,160,170,170,400.00,SBD,Wraps,1
Vladimir Kulichkov,Владимир Куличков,Pro Teen 13-15,2000-06-21,15,73.00,75,M,140,150,-160,150,95,105,110,110,175,190,202.5,202.5,462.50,SBD,Wraps,1
Sergey Demetskiy,Сергей Демецкий,Pro Juniors 20-23,1994-07-04,21,73.80,75,M,120,130,140,140,100,-110,-110,100,120,130,140,140,380.00,SBD,Wraps,1
Aleksandr Lopyrev,Александр Лопырев,Pro Juniors 20-23,1995-01-03,21,78.20,82.5,M,150,160,170,170,125,130,-140,130,190,200,-207.5,200,500.00,SBD,Wraps,1
Konstantin Sobolev,Константин Соболев,Pro Open,1980-04-04,36,79.50,82.5,M,175,-185,-187.5,175,142.5,150,-155,150,195,205,210,210,535.00,SBD,Wraps,1
Dmitriy Semyonov,Дмитрий Семёнов,Pro Open,1991-08-31,24,82.10,82.5,M,150,160,-170,160,115,125,132.5,132.5,170,185,-200,185,477.50,SBD,Wraps,2
Ilya Antonov,Илья Антонов,Pro Teen 16-17,1998-07-08,17,87.80,90,M,120,-130,135,135,100,105,-112.5,105,130,140,-152.5,140,380.00,SBD,Wraps,1
Leonid Dashevskiy,Леонид Дашевский,Pro Open,1987-02-06,29,89.00,90,M,160,-170,170,170,160,165,-170,165,180,200,210,210,545.00,SBD,Wraps,1
Aleksandr Tikhov,Александр Тихов,Pro Open,1983-12-11,32,85.30,90,M,165,170,-175,170,-132.5,-132.5,132.5,132.5,190,-200,-202.5,190,492.50,SBD,Wraps,2
Nikita Kuchin,Никита Кучин,Pro Open,1992-03-10,24,88.80,90,M,-130,-130,-130,,-115,,,,-180,,,,,SBD,Wraps,DQ
Dmitriy Belousov,Дмитрий Белоусов,Pro Teen 18-19,1996-11-28,19,93.90,100,M,160,172.5,-182.5,172.5,125,135,145,145,190,205,220,220,537.50,SBD,Wraps,1
Andrey Kirindyasov,Андрей Кириндясов,Pro Open,1988-03-20,28,96.00,100,M,200,-215,-220,200,150,160,-177.5,160,210,225,235,235,595.00,SBD,Wraps,1
Sergey Shcherbakov,Сергей Щербаков,Pro Open,1991-03-20,25,95.80,100,M,185,192.5,-200,192.5,135,145,150,150,200,220,230,230,572.50,SBD,Wraps,2
Mikhail Podosinnikov,Михаил Подосинников,Pro Open,1986-10-08,29,92.45,100,M,150,160,165,165,125,130,135,135,220,225,230,230,530.00,SBD,Wraps,3
Anvar Ashutov,Анвар Ашутов,Pro Open,1987-03-05,29,98.50,100,M,170,180,185,185,120,127.5,132.5,132.5,-205,212.5,-220,212.5,530.00,SBD,Wraps,4
Rinat Kurmaliev,Ринат Курмалиев,Pro Open,1981-08-29,34,94.70,100,M,-170,175,180,180,125,132.5,-140,132.5,205,215,-225,215,527.50,SBD,Wraps,5
Yuriy Trembovetskiy,Юрий Трембовецкий,Pro Open,1986-07-29,29,93.10,100,M,150,-160,165,165,130,140,145,145,-160,170,-180,170,480.00,SBD,Wraps,6
Aleksandr Buylov,Александр Буйлов,Pro Open,1988-12-16,27,103.40,110,M,170,185,-200,185,145,152.5,162.5,162.5,200,220,230,230,577.50,SBD,Wraps,1
Eldar Yaitskov,Эльдар Яицков,Pro Teen 18-19,1997-04-30,18,107.00,110,M,160,170,-180,170,120,-130,-130,120,170,190,,190,480.00,SBD,Wraps,1
Grigoriy Emelyanenko,Григорий Емельяненко,Pro Open,1986-02-14,30,107.50,110,M,200,210,220,220,120,130,135,135,220,230,240,240,595.00,SBD,Wraps,1
