Division,WeightClassKg,Place,Name,Team,BodyweightKg,Best3SquatKg,Best3BenchKg,Best3DeadliftKg,TotalKg,Equipment,Event,Sex,BirthDate
Boys,51.71,1,Julian Clayborne,Trinity,51.71,113.4,83.91,154.22,351.53,Single-ply,SBD,M,
Boys,51.71,2,Rudy Morales,Shepherd,51.71,104.33,54.43,136.08,294.84,Single-ply,SBD,M,
Boys,51.71,3,John Garcia,New Caney,50.62,104.33,68.04,104.33,276.69,Single-ply,SBD,M,
Boys,51.71,4,Lane Thieme,Palestine Westwood,49.62,102.06,49.9,106.59,258.55,Single-ply,SBD,M,
Boys,51.71,5,Hunter Vandver,Splendora,47.81,74.84,54.43,99.79,229.06,Single-ply,SBD,M,
Boys,55.79,1,Aeneas Page,Palestine Westwood,55.7,172.37,86.18,181.44,439.98,Single-ply,SBD,M,
Boys,55.79,2,Ethan Torres,New Caney,55.79,181.44,90.72,158.76,430.91,Single-ply,SBD,M,
Boys,55.79,3,Ricky Regalado,Warren,55.61,124.74,104.33,142.88,371.95,Single-ply,SBD,M,
Boys,55.79,4,Luis Santillan,New Caney,54.79,122.47,63.5,122.47,308.44,Single-ply,SBD,M,
Boys,55.79,DQ,Jj Salazar,Cleveland,53.43,83.91,,,,Single-ply,SBD,M,
Boys,59.87,1,Juan Chavez,New Caney,59.78,167.83,99.79,167.83,435.45,Single-ply,SBD,M,
Boys,59.87,2,Lain Baker,Shepherd,59.78,167.83,92.99,167.83,428.64,Single-ply,SBD,M,
Boys,59.87,3,Dario Santillain,New Caney,58.79,138.35,99.79,154.22,392.36,Single-ply,SBD,M,
Boys,59.87,4,Evan Salazar,Cleveland,59.78,142.88,79.38,151.95,374.21,Single-ply,SBD,M,
Boys,59.87,5,Will Faulkner,Trinity,59.42,129.27,86.18,142.88,358.34,Single-ply,SBD,M,
Boys,59.87,6,Walker Windt,Shepherd,58.97,127.01,70.31,120.2,317.51,Single-ply,SBD,M,
Boys,59.87,7,Aiden Weeks,Shepherd,58.51,102.06,56.7,113.4,272.16,Single-ply,SBD,M,
Boys,59.87,8,Clayton Rhodes,Splendora,59.51,102.06,70.31,97.52,269.89,Single-ply,SBD,M,
Boys,67.13,1,Trey Goodman,Trinity,66.41,201.85,122.47,206.38,530.7,Single-ply,SBD,M,
Boys,67.13,2,Josh Weekes,Shepherd,65.41,222.26,104.33,201.85,528.44,Single-ply,SBD,M,
Boys,67.13,3,Shelton Vasquez,Shepherd,66.22,174.63,97.52,174.63,446.79,Single-ply,SBD,M,
Boys,67.13,4,Tony Solano,Warren,66.5,156.49,88.45,183.7,428.64,Single-ply,SBD,M,
Boys,67.13,5,Cannon Churchman,Palestine Westwood,60.06,181.44,99.79,136.08,417.3,Single-ply,SBD,M,
Boys,67.13,6,Jordan Anderson #1,New Caney,62.96,167.83,86.18,158.76,412.77,Single-ply,SBD,M,
Boys,67.13,7,Justan Stanley,Kountze,61.69,145.15,81.65,183.7,410.5,Single-ply,SBD,M,
Boys,67.13,8,Nate Harrison,Shepherd,67.13,172.37,88.45,149.69,410.5,Single-ply,SBD,M,
Boys,67.13,9,Nick Johnson,Splendora,64.86,158.76,83.91,147.42,390.09,Single-ply,SBD,M,
Boys,67.13,10,Tahj Conner,New Caney,60.69,147.42,83.91,156.49,387.82,Single-ply,SBD,M,
Boys,67.13,11,Hayden Emery,Kountze,66.04,136.08,90.72,154.22,381.02,Single-ply,SBD,M,
Boys,67.13,12,Elijah Carter,Kountze,64.05,127.01,77.11,151.95,356.07,Single-ply,SBD,M,
Boys,67.13,13,Nolan Baxter,Kountze,61.14,136.08,72.57,145.15,353.8,Single-ply,SBD,M,
Boys,67.13,14,Scott Jones,Warren,61.69,111.13,72.57,136.08,319.78,Single-ply,SBD,M,
Boys,74.84,1,Coy Elton,Palestine Westwood,69.67,199.58,117.93,204.12,521.63,Single-ply,SBD,M,
Boys,74.84,2,Dailyn Paris,Splendora,70.76,161.03,115.67,170.1,446.79,Single-ply,SBD,M,
Boys,74.84,3,Rian Torres,New Caney,73.75,174.63,117.93,154.22,446.79,Single-ply,SBD,M,
Boys,74.84,4,Jakoby Brantley,Palestine Westwood,74.57,156.49,92.99,181.44,430.91,Single-ply,SBD,M,
Boys,74.84,5,Ely Whisenant,Kountze,71.21,165.56,99.79,154.22,419.57,Single-ply,SBD,M,
Boys,74.84,6,Caleb James,Kountze,73.75,147.42,70.31,145.15,362.87,Single-ply,SBD,M,
Boys,74.84,7,Matthew Walters,Kountze,72.76,117.93,68.04,145.15,331.12,Single-ply,SBD,M,
Boys,74.84,8,Mateo Flores,New Caney,68.13,111.13,74.84,122.47,308.44,Single-ply,SBD,M,
Boys,74.84,DQ,Kristopher Baur,New Caney,72.85,,,,,Single-ply,SBD,M,
Boys,82.1,1,Edwin Uribe,Cleveland,74.93,192.78,113.4,195.04,501.22,Single-ply,SBD,M,
Boys,82.1,2,Miguel Ruiz,Trinity,81.28,167.83,102.06,183.7,453.59,Single-ply,SBD,M,
Boys,82.1,3,Orian Wormley,New Caney,77.56,149.69,92.99,163.29,405.97,Single-ply,SBD,M,
Boys,82.1,4,Landen Robbins,Shepherd,80.83,161.03,74.84,170.1,405.97,Single-ply,SBD,M,
Boys,82.1,5,Robert Perez,Kountze,78.74,158.76,90.72,154.22,403.7,Single-ply,SBD,M,
Boys,82.1,6,Gabriel Villarreal,Palestine Westwood,82.01,156.49,86.18,151.95,394.63,Single-ply,SBD,M,
Boys,82.1,7,Eli Tibbetts,Warren,76.84,142.88,90.72,158.76,392.36,Single-ply,SBD,M,
Boys,82.1,8,Collin Smith,New Caney,78.47,145.15,95.25,151.95,392.36,Single-ply,SBD,M,
Boys,82.1,9,Oscar Elizondo,New Caney,80.83,142.88,83.91,145.15,371.95,Single-ply,SBD,M,
Boys,82.1,10,Tobey Keith,Splendora,81.92,117.93,90.72,151.95,360.61,Single-ply,SBD,M,
Boys,82.1,11,Paolo Guzman,New Caney,76.2,142.88,88.45,124.74,356.07,Single-ply,SBD,M,
Boys,82.1,12,Angel Raya,Kountze,75.02,136.08,68.04,145.15,349.27,Single-ply,SBD,M,
Boys,82.1,13,Blake Dumas,Trinity,78.93,113.4,81.65,124.74,319.78,Single-ply,SBD,M,
Boys,82.1,14,Hunter Murphy,New Caney,76.93,120.2,72.57,90.72,283.5,Single-ply,SBD,M,
Boys,82.1,DQ,Kadarius Goodall,Trinity,80.56,183.7,115.67,,,Single-ply,SBD,M,
Boys,89.81,1,Rodolfo Mayorquin,New Caney,87.54,226.8,122.47,204.12,553.38,Single-ply,SBD,M,
Boys,89.81,2,Ryan Sawyer,Shepherd,83.91,204.12,117.93,213.19,535.24,Single-ply,SBD,M,
Boys,89.81,3,Brice Major,Shepherd,85.82,190.51,117.93,199.58,508.02,Single-ply,SBD,M,
Boys,89.81,4,Jaden Crutcher,Palestine Westwood,86.91,190.51,117.93,181.44,489.88,Single-ply,SBD,M,
Boys,89.81,5,Zachery Chance,Shepherd,85.82,181.44,113.4,181.44,476.27,Single-ply,SBD,M,
Boys,89.81,6,William Pelt,Warren,88.9,183.7,102.06,183.7,469.47,Single-ply,SBD,M,
Boys,89.81,7,Tanner Adams,Splendora,84.01,149.69,104.33,199.58,453.59,Single-ply,SBD,M,
Boys,89.81,8,Juan Gonzalez,Cleveland,86.91,161.03,88.45,195.04,444.52,Single-ply,SBD,M,
Boys,89.81,9,Caiden Yarbrough,Shepherd,87.18,149.69,102.06,165.56,417.3,Single-ply,SBD,M,
Boys,89.81,10,Rj Thibodeaux,Trinity,85.73,154.22,90.72,165.56,410.5,Single-ply,SBD,M,
Boys,89.81,11,Joshua Jack,Cleveland,84.19,142.88,92.99,158.76,394.63,Single-ply,SBD,M,
Boys,89.81,12,Dauson Venable,Kountze,82.46,138.35,86.18,161.03,385.55,Single-ply,SBD,M,
Boys,89.81,DQ,Logan Barnett,Cleveland,88.9,115.67,,,,Single-ply,SBD,M,
Boys,99.79,1,Devon Preston,Shepherd,92.17,190.51,120.2,183.7,494.42,Single-ply,SBD,M,
Boys,99.79,2,Bryce Smith,Trinity,93.89,190.51,92.99,188.24,471.74,Single-ply,SBD,M,
Boys,99.79,3,Emilio Cleveland,Trinity,98.43,167.83,102.06,161.03,430.91,Single-ply,SBD,M,
Boys,99.79,4,Ayden Coker,Palestine Westwood,93.89,117.93,81.65,113.4,312.98,Single-ply,SBD,M,
Boys,109.77,1,Kaylon Ellis,Shepherd,100.43,197.31,122.47,190.51,510.29,Single-ply,SBD,M,
Boys,109.77,2,Mason Walters,Shepherd,101.42,174.63,108.86,170.1,453.59,Single-ply,SBD,M,
Boys,109.77,3,Camron Mitchell,New Caney,104.96,145.15,102.06,149.69,396.89,Single-ply,SBD,M,
Boys,109.77,4,Austin Beauchamp,New Caney,99.97,136.08,111.13,142.88,390.09,Single-ply,SBD,M,
Boys,109.77,DQ,Jose Gamez,Splendora,106.23,142.88,74.84,,,Single-ply,SBD,M,
Boys,124.74,1,Collin Rhodes #2,Splendora,115.58,249.48,156.49,242.67,648.64,Single-ply,SBD,M,
Boys,124.74,2,Jayden Barnett,Cleveland,110.77,256.28,158.76,231.33,646.37,Single-ply,SBD,M,
Boys,124.74,3,Alec Genera,New Caney,121.11,238.14,156.49,208.65,603.28,Single-ply,SBD,M,
Boys,124.74,4,Donovan Barrett,Palestine Westwood,124.56,213.19,127.01,176.9,517.1,Single-ply,SBD,M,
Boys,124.74,5,Elis Caceres,Trinity,119.29,208.65,97.52,208.65,514.83,Single-ply,SBD,M,
Boys,124.74,6,Dylan Dalahite,Kountze,124.38,206.38,108.86,149.69,464.93,Single-ply,SBD,M,
Boys,124.74,7,Evan Carter,Kountze,113.13,149.69,104.33,195.04,449.06,Single-ply,SBD,M,
Boys,124.74,8,Rhandall Gober,Splendora,113.49,163.29,97.52,151.95,412.77,Single-ply,SBD,M,
Boys,124.74+,1,Anthony Martinez,New Caney,152.32,238.14,158.76,204.12,601.01,Single-ply,SBD,M,
Boys,,NS,David Sorto,Cleveland,,,,,,Single-ply,SBD,M,
Boys,,NS,Jason Williams,Splendora,,,,,,Single-ply,SBD,M,
Boys,,NS,Caleb Martin,Splendora,,,,,,Single-ply,SBD,M,
Boys,,NS,Noah Thomas,Kountze,,,,,,Single-ply,SBD,M,
Boys,,NS,Djuan Grant,New Caney,,,,,,Single-ply,SBD,M,
Boys,,NS,Wyatt Hail,New Caney,,,,,,Single-ply,SBD,M,
Boys,,NS,Daniel Landaverde,New Caney,,,,,,Single-ply,SBD,M,
Boys,,NS,Jose Colunga,New Caney,,,,,,Single-ply,SBD,M,
Boys,,NS,Jimmy Lewis,Palestine Westwood,,,,,,Single-ply,SBD,M,
Boys,,NS,Hunter Smith #5,Trinity,,,,,,Single-ply,SBD,M,
Boys,,NS,Jeremiah Edwards,Trinity,,,,,,Single-ply,SBD,M,
Boys,,NS,Fidencio Ruiz,Trinity,,,,,,Single-ply,SBD,M,
Boys,,NS,Dorian Jones,Warren,,,,,,Single-ply,SBD,M,
Boys,,NS,Logan Tressler,Warren,,,,,,Single-ply,SBD,M,
Boys,,NS,Randy Lout,Warren,,,,,,Single-ply,SBD,M,
Boys,,NS,Jeremiah Juarez,Warren,,,,,,Single-ply,SBD,M,
Boys,,NS,Kyler Lofting,Warren,,,,,,Single-ply,SBD,M,
Boys,,NS,Isom McGallion,Warren,,,,,,Single-ply,SBD,M,
