Division,WeightClassKg,Place,Name,Team,BodyweightKg,Best3SquatKg,Best3BenchKg,Best3DeadliftKg,TotalKg,Equipment,Event,Sex,BirthDate
Boys,51.71,1,Tucker Sanders,Brownsboro,51.44,129.27,90.72,133.81,353.8,Single-ply,SBD,M,
Boys,51.71,2,Trace Woodruff,Crandall,51.35,117.93,63.5,142.88,324.32,Single-ply,SBD,M,
Boys,51.71,3,Colby Plasterer,Ore City,47.54,97.52,61.23,102.06,260.82,Single-ply,SBD,M,
Boys,51.71,4,Rhett Hutchins,Whitehouse,49.8,99.79,49.9,97.52,247.21,Single-ply,SBD,M,
Boys,51.71,5,Crew Goodson,Lindale,40.28,83.91,38.56,79.38,201.85,Single-ply,SBD,M,
Boys,55.79,1,BJ Stidham,Gladewater Sabine,55.16,192.78,120.2,215.46,528.44,Single-ply,SBD,M,
Boys,55.79,2,Jesus Barrientos,Brownsboro,55.79,176.9,115.67,174.63,467.2,Single-ply,SBD,M,
Boys,55.79,3,Anthony Cuellar,Brownsboro,55.79,133.81,83.91,138.35,356.07,Single-ply,SBD,M,
Boys,59.87,1,Kyle Crowford,Brownsboro,58.79,176.9,83.91,158.76,419.57,Single-ply,SBD,M,
Boys,59.87,2,Kile Stripland,Gladewater Sabine,59.78,142.88,104.33,151.95,399.16,Single-ply,SBD,M,
Boys,59.87,3,Zane Smith,Gladewater Sabine,59.78,124.74,99.79,136.08,360.61,Single-ply,SBD,M,
Boys,59.87,4,Nicholas Burns,Marshall,56.34,142.88,77.11,136.08,356.07,Single-ply,SBD,M,
Boys,59.87,5,Renard Mateo,Mineola,58.88,102.06,68.04,136.08,306.17,Single-ply,SBD,M,
Boys,59.87,6,Adam Blalock,Mineola,58.33,115.67,56.7,129.27,301.64,Single-ply,SBD,M,
Boys,59.87,DQ,Lukas Gill,Tyler Lee,59.42,136.08,,,,Single-ply,SBD,M,
Boys,67.13,1,Dj Walton,Lindale,65.45,190.51,97.52,199.58,487.61,Single-ply,SBD,M,
Boys,67.13,2,Mickey Ray,Brownsboro,67.13,170.1,106.59,181.44,458.13,Single-ply,SBD,M,
Boys,67.13,3,Ryan Manning,Marshall,67.13,181.44,92.99,174.63,449.06,Single-ply,SBD,M,
Boys,67.13,4,Bryce Gregory,Tyler Lee,66.32,158.76,102.06,181.44,442.25,Single-ply,SBD,M,
Boys,67.13,5,Dq Jackson,Marshall,65.23,151.95,90.72,174.63,417.3,Single-ply,SBD,M,
Boys,67.13,6,Tyler Pruitt,Forney,66.86,161.03,92.99,154.22,408.23,Single-ply,SBD,M,
Boys,67.13,7,Kaden Mahoney,Troup,63.68,170.1,92.99,142.88,405.97,Single-ply,SBD,M,
Boys,67.13,8,Jeremiah Sheffiel,Tyler Lee,65.86,151.95,90.72,156.49,399.16,Single-ply,SBD,M,
Boys,67.13,9,Braiden Miller,Whitehouse,66.41,154.22,90.72,151.95,396.89,Single-ply,SBD,M,
Boys,67.13,10,Daniel Cabrera,Tyler Chapel Hill,64.95,151.95,83.91,158.76,394.63,Single-ply,SBD,M,
Boys,67.13,11,Nicholas Rodirguez,Tyler Chapel Hill,67.13,142.88,92.99,151.95,387.82,Single-ply,SBD,M,
Boys,67.13,12,Robert Haney,Brownsboro,60.51,147.42,81.65,136.08,365.14,Single-ply,SBD,M,
Boys,67.13,13,Cason Hughes,Ore City,66.04,136.08,63.5,142.88,342.46,Single-ply,SBD,M,
Boys,67.13,14,Vann Rainer,Tyler Lee,61.14,136.08,65.77,138.35,340.19,Single-ply,SBD,M,
Boys,67.13,15,Kyle Ritter,Ore City,64.68,122.47,74.84,124.74,322.05,Single-ply,SBD,M,
Boys,67.13,16,JR Dominguez,Ore City,62.87,113.4,63.5,120.2,297.1,Single-ply,SBD,M,
Boys,67.13,17,Darian Lara,Ore City,63.41,122.47,58.97,113.4,294.84,Single-ply,SBD,M,
Boys,67.13,18,Vilmer Zimmarron,Crandall,67.04,108.86,58.97,111.13,278.96,Single-ply,SBD,M,
Boys,67.13,19,Walker Coe,Tyler Lee,63.41,81.65,56.7,102.06,240.4,Single-ply,SBD,M,
Boys,67.13,DQ,Nik Moody,Tyler Chapel Hill,64.14,142.88,,,,Single-ply,SBD,M,
Boys,67.13,DQ,Jyerean Mapps,Marshall,62.87,,,,,Single-ply,SBD,M,
Boys,74.84,1,Harley Sanders,Brownsboro,72.76,242.67,174.63,215.46,632.76,Single-ply,SBD,M,
Boys,74.84,2,Jamichael Turman,Tyler Lee,72.21,229.06,129.27,201.85,560.19,Single-ply,SBD,M,
Boys,74.84,3,DeDe Williams,Marshall,68.67,172.37,102.06,215.46,489.88,Single-ply,SBD,M,
Boys,74.84,4,Kaleb Stephenson,Brownsboro,74.75,183.7,104.33,190.51,478.54,Single-ply,SBD,M,
Boys,74.84,5,Alec Morris,Gladewater Sabine,70.22,181.44,124.74,167.83,474,Single-ply,SBD,M,
Boys,74.84,6,Henry Waggoner,Lindale,74.03,181.44,104.33,188.24,474,Single-ply,SBD,M,
Boys,74.84,7,Daniel Benitez,Lindale,70.31,167.83,102.06,192.78,462.66,Single-ply,SBD,M,
Boys,74.84,8,Joshua Farrar,Whitehouse,74.84,158.76,111.13,183.7,453.59,Single-ply,SBD,M,
Boys,74.84,9,Zane Phillips,Mount Pleasant,68.58,167.83,83.91,170.1,421.84,Single-ply,SBD,M,
Boys,74.84,10,Jon Richard Washington,Forney,70.13,154.22,92.99,172.37,419.57,Single-ply,SBD,M,
Boys,74.84,11,John Ford #3,Troup,72.21,167.83,90.72,156.49,415.04,Single-ply,SBD,M,
Boys,74.84,12,Eleazar Vasques,Brownsboro,74.12,142.88,92.99,174.63,410.5,Single-ply,SBD,M,
Boys,74.84,13,Jq Davis,Marshall,71.94,165.56,70.31,170.1,405.97,Single-ply,SBD,M,
Boys,74.84,14,Jacob Grimes,Crandall,72.85,151.95,111.13,142.88,405.97,Single-ply,SBD,M,
Boys,74.84,15,Jaylen Woods,Ore City,70.58,113.4,95.25,192.78,401.43,Single-ply,SBD,M,
Boys,74.84,16,Jesse Calley,Troup,67.77,149.69,77.11,161.03,387.82,Single-ply,SBD,M,
Boys,74.84,17,Alder Smithson,Ore City,73.39,170.1,79.38,124.74,374.21,Single-ply,SBD,M,
Boys,74.84,18,Ethan Watson,Crandall,67.95,136.08,90.72,136.08,362.87,Single-ply,SBD,M,
Boys,74.84,19,Jeremiah Ramirez,Troup,74.03,124.74,88.45,145.15,358.34,Single-ply,SBD,M,
Boys,74.84,20,Hayden Wages,Mineola,68.22,136.08,77.11,142.88,356.07,Single-ply,SBD,M,
Boys,74.84,21,Andre Sailese,Tatum,73.21,127.01,90.72,138.35,356.07,Single-ply,SBD,M,
Boys,74.84,22,Matthew Martin,Longview Spring Hill,74.75,124.74,68.04,142.88,335.66,Single-ply,SBD,M,
Boys,74.84,23,Anthony Jeffrey,Mount Pleasant,69.58,108.86,72.57,142.88,324.32,Single-ply,SBD,M,
Boys,74.84,24,Mauricio Benividez,Tatum,68.22,97.52,83.91,136.08,317.51,Single-ply,SBD,M,
Boys,74.84,25,Ty Chandler,Jacksonville,74.75,102.06,68.04,131.54,301.64,Single-ply,SBD,M,
Boys,74.84,26,Eric Brody,Whitehouse,71.94,131.54,,,131.54,Single-ply,S,M,
Boys,74.84,27,Esteban Trejo,Mount Pleasant,69.67,120.2,,,120.2,Single-ply,S,M,
Boys,74.84,DQ,Dalton Gomez,Crandall,70.03,,,,,Single-ply,S,M,
Boys,74.84,DQ,Lucas Mahoney,Tyler Chapel Hill,74.57,,,,,Single-ply,S,M,
Boys,82.1,1,Marcos Molina,Brownsboro,78.56,267.62,142.88,222.26,632.76,Single-ply,SBD,M,
Boys,82.1,2,Cole Williams,Brownsboro,81.83,206.38,158.76,229.06,594.21,Single-ply,SBD,M,
Boys,82.1,3,Kelan Lloyd,Tatum,81.74,185.97,115.67,195.04,496.68,Single-ply,SBD,M,
Boys,82.1,4,Kaleb Hernandez,Brownsboro,81.01,181.44,113.4,183.7,478.54,Single-ply,SBD,M,
Boys,82.1,5,Jacob Huddleston,Jacksonville,77.93,172.37,108.86,185.97,467.2,Single-ply,SBD,M,
Boys,82.1,6,Jaret Allen,Lindale,81.74,154.22,108.86,204.12,467.2,Single-ply,SBD,M,
Boys,82.1,7,Kole Stripland,Gladewater Sabine,77.66,181.44,113.4,170.1,464.93,Single-ply,SBD,M,
Boys,82.1,8,Tommy Crockett,Crandall,81.28,174.63,115.67,172.37,462.66,Single-ply,SBD,M,
Boys,82.1,9,Matthew Shankles,Longview Spring Hill,79.56,170.1,108.86,174.63,453.59,Single-ply,SBD,M,
Boys,82.1,10,Gerrardo Rameriz,Jacksonville,77.66,151.95,117.93,170.1,439.98,Single-ply,SBD,M,
Boys,82.1,11,Bordy Barnhill,Longview Spring Hill,81.19,163.29,88.45,181.44,433.18,Single-ply,SBD,M,
Boys,82.1,12,Estaban Munoz,Winona,80.29,174.63,120.2,131.54,426.38,Single-ply,SBD,M,
Boys,82.1,13,Tanner Howland,Forney,79.65,140.61,106.59,176.9,424.11,Single-ply,SBD,M,
Boys,82.1,14,Dominic Williams,Marshall,79.56,154.22,83.91,181.44,419.57,Single-ply,SBD,M,
Boys,82.1,15,Jordan Slayton,Whitehouse,79.56,142.88,104.33,167.83,415.04,Single-ply,SBD,M,
Boys,82.1,16,Darion Jones,Jacksonville,75.21,145.15,113.4,145.15,403.7,Single-ply,SBD,M,
Boys,82.1,17,Kaden McFaul,Longview Spring Hill,76.84,158.76,79.38,163.29,401.43,Single-ply,SBD,M,
Boys,82.1,18,Felipe Campanzano,Tatum,77.29,113.4,68.04,142.88,324.32,Single-ply,SBD,M,
Boys,82.1,19,Johnathan Alanzo,Ore City,76.57,102.06,58.97,136.08,297.1,Single-ply,SBD,M,
Boys,82.1,20,Coleman Hinshaw,Tyler Lee,81.56,158.76,,,158.76,Single-ply,S,M,
Boys,82.1,DQ,Preston Chabless,Crandall,80.01,,,,,Single-ply,S,M,
Boys,89.81,1,Ethan Thornton,Lindale,89.54,238.14,142.88,263.08,644.1,Single-ply,SBD,M,
Boys,89.81,2,Brayden Bulman,Whitehouse,89.81,238.14,147.42,240.4,625.96,Single-ply,SBD,M,
Boys,89.81,3,Chrisian Tristian,Brownsboro,84.19,233.6,167.83,217.72,619.15,Single-ply,SBD,M,
Boys,89.81,4,Ryan Magrill,Brownsboro,88.9,226.8,129.27,208.65,564.72,Single-ply,SBD,M,
Boys,89.81,5,Michael Marrs,Longview Spring Hill,84.73,188.24,108.86,240.4,537.51,Single-ply,SBD,M,
Boys,89.81,6,Kobe Kendrick,Mineola,88.72,170.1,104.33,185.97,460.4,Single-ply,SBD,M,
Boys,89.81,7,Daylon Branham,Gladewater Sabine,89.81,176.9,111.13,165.56,453.59,Single-ply,SBD,M,
Boys,89.81,8,Elias Elizando,Mount Pleasant,88.72,172.37,83.91,192.78,449.06,Single-ply,SBD,M,
Boys,89.81,9,Caleb Bolay,Whitehouse,89.54,147.42,138.35,158.76,444.52,Single-ply,SBD,M,
Boys,89.81,10,Bayne Brinkman,Longview Spring Hill,83.1,127.01,70.31,172.37,369.68,Single-ply,SBD,M,
Boys,89.81,11,Demarque Ford,Winona,87.45,120.2,92.99,136.08,349.27,Single-ply,SBD,M,
Boys,89.81,12,Jaxon Riley,Tatum,84.55,120.2,70.31,136.08,326.59,Single-ply,SBD,M,
Boys,89.81,13,Anthony Cummings,Jacksonville,88.09,83.91,83.91,145.15,312.98,Single-ply,SBD,M,
Boys,89.81,14,Josue Gaytan,Jacksonville,88.63,95.25,65.77,111.13,272.16,Single-ply,SBD,M,
Boys,89.81,DQ,Hunter Wright,Mineola,85.09,174.63,,,,Single-ply,SBD,M,
Boys,99.79,1,Noah Sissom,Brownsboro,95.98,249.48,142.88,276.69,669.05,Single-ply,SBD,M,
Boys,99.79,2,Liam Huynh,Whitehouse,98.61,222.26,142.88,226.8,591.94,Single-ply,SBD,M,
Boys,99.79,3,Max Richardson,Tyler Chapel Hill,98.61,204.12,127.01,238.14,569.26,Single-ply,SBD,M,
Boys,99.79,4,Adrian Lacy,Tyler Chapel Hill,95.62,206.38,131.54,215.46,553.38,Single-ply,SBD,M,
Boys,99.79,5,David Omosigho,Crandall,97.61,213.19,138.35,201.85,553.38,Single-ply,SBD,M,
Boys,99.79,6,Tayton Auldridge,Forney,92.62,206.38,117.93,199.58,523.9,Single-ply,SBD,M,
Boys,99.79,7,Kaleb Barton,Mineola,98.43,222.26,104.33,192.78,519.36,Single-ply,SBD,M,
Boys,99.79,8,Coltin Reed,Gladewater Sabine,95.62,190.51,124.74,181.44,496.68,Single-ply,SBD,M,
Boys,99.79,9,Trae Hawkins,Whitehouse,96.71,215.46,117.93,154.22,487.61,Single-ply,SBD,M,
Boys,99.79,10,Trevian Sneed,Mineola,99.25,181.44,113.4,192.78,487.61,Single-ply,SBD,M,
Boys,99.79,11,Jeremiah Lawson,Tatum,93.71,174.63,102.06,174.63,451.32,Single-ply,SBD,M,
Boys,99.79,12,Camron Feliciano,Longview Spring Hill,93.98,181.44,97.52,163.29,442.25,Single-ply,SBD,M,
Boys,99.79,13,Astin Ledbetter,Mount Pleasant,93.71,156.49,102.06,181.44,439.98,Single-ply,SBD,M,
Boys,99.79,14,Caleb Jones,Whitehouse,92.8,156.49,102.06,158.76,417.3,Single-ply,SBD,M,
Boys,99.79,15,Corden Blount,Longview Spring Hill,92.99,158.76,74.84,181.44,415.04,Single-ply,SBD,M,
Boys,99.79,16,Riley O'Quinn,Tatum,93.71,149.69,99.79,158.76,408.23,Single-ply,SBD,M,
Boys,99.79,17,Sean Minehart,Tyler Lee,98.61,142.88,88.45,161.03,392.36,Single-ply,SBD,M,
Boys,99.79,18,Brantley Bauer,Jacksonville,92.8,142.88,70.31,142.88,356.07,Single-ply,SBD,M,
Boys,99.79,DQ,Corey Johnson,Tyler Chapel Hill,93.98,,,,,Single-ply,SBD,M,
Boys,109.77,1,Isiah Alexander,Marshall,107.95,210.92,108.86,215.46,535.24,Single-ply,SBD,M,
Boys,109.77,2,Jj Barrera,Winona,103.6,201.85,113.4,208.65,523.9,Single-ply,SBD,M,
Boys,109.77,3,Jd Reazin,Tyler Chapel Hill,109.68,183.7,117.93,206.38,508.02,Single-ply,SBD,M,
Boys,109.77,4,Tariq Robinson,Tyler Lee,109.68,199.58,142.88,163.29,505.76,Single-ply,SBD,M,
Boys,109.77,5,Matthew Diaz,Forney,107.32,183.7,108.86,192.78,485.34,Single-ply,SBD,M,
Boys,109.77,6,Brandon Krenek,Longview Spring Hill,104.69,181.44,111.13,181.44,474,Single-ply,SBD,M,
Boys,109.77,7,Zala Antonio,Jacksonville,109.23,181.44,99.79,181.44,462.66,Single-ply,SBD,M,
Boys,109.77,8,Blake Mays,Mount Pleasant,108.41,163.29,113.4,176.9,453.59,Single-ply,SBD,M,
Boys,109.77,9,Gabe Hart,Lindale,101.65,172.37,90.72,183.7,446.79,Single-ply,SBD,M,
Boys,109.77,10,Stephen Thrasher,Forney,103.33,154.22,106.59,179.17,439.98,Single-ply,SBD,M,
Boys,109.77,11,Trevor Wood,Crandall,108.86,156.49,111.13,161.03,428.64,Single-ply,SBD,M,
Boys,109.77,12,Kade Fry,Tyler Lee,109.13,170.1,102.06,154.22,426.38,Single-ply,SBD,M,
Boys,109.77,13,Emiliano Corona,Jacksonville,103.06,142.88,92.99,181.44,417.3,Single-ply,SBD,M,
Boys,109.77,14,Billy Bateman,Jacksonville,104.24,151.95,102.06,158.76,412.77,Single-ply,SBD,M,
Boys,109.77,15,Moraylle Brumsey,Mineola,105.87,156.49,83.91,167.83,408.23,Single-ply,SBD,M,
Boys,109.77,16,Justin Pomyleal,Gladewater Sabine,102.06,136.08,90.72,145.15,371.95,Single-ply,SBD,M,
Boys,109.77,17,Oscar Perez,Mount Pleasant,101.06,120.2,74.84,147.42,342.46,Single-ply,SBD,M,
Boys,109.77,DQ,Corey Lawrence,Tyler Lee,109.13,122.47,,,,Single-ply,SBD,M,
Boys,124.74,1,Michael Sutton,Tyler Chapel Hill,122.02,290.3,145.15,249.48,684.92,Single-ply,SBD,M,
Boys,124.74,2,Brayden Price,Tyler Chapel Hill,118.12,278.96,170.1,226.8,675.85,Single-ply,SBD,M,
Boys,124.74,3,KeJuan Fite,Mineola,122.83,244.94,142.88,217.72,605.55,Single-ply,SBD,M,
Boys,124.74,4,George Lias,Mount Pleasant,114.94,238.14,127.01,238.14,603.28,Single-ply,SBD,M,
Boys,124.74,5,Trey Hudson,Tyler Chapel Hill,114.49,210.92,142.88,195.04,548.85,Single-ply,SBD,M,
Boys,124.74,6,Moses Medrano,Lindale,119.34,204.12,117.93,215.46,537.51,Single-ply,SBD,M,
Boys,124.74,7,Donovan Jordan,Tyler Lee,116.57,199.58,111.13,210.92,521.63,Single-ply,SBD,M,
Boys,124.74,8,Tony Natera,Longview Spring Hill,110.13,188.24,102.06,219.99,510.29,Single-ply,SBD,M,
Boys,124.74,9,Remon Jones,Marshall,121.74,192.78,108.86,204.12,505.76,Single-ply,SBD,M,
Boys,124.74,10,Willie Figueroa,Tyler Lee,112.76,197.31,95.25,197.31,489.88,Single-ply,SBD,M,
Boys,124.74,11,Aiden Gay,Jacksonville,124.19,167.83,120.2,181.44,469.47,Single-ply,SBD,M,
Boys,124.74,12,Dawson Elmore,Mineola,114.76,170.1,124.74,170.1,464.93,Single-ply,SBD,M,
Boys,124.74,13,Jesus Gonzalez,Mount Pleasant,113.22,170.1,106.59,181.44,458.13,Single-ply,SBD,M,
Boys,124.74+,1,Matthew Davis #4,Lindale,191.23,317.51,156.49,260.82,734.82,Single-ply,SBD,M,
Boys,124.74+,2,Jessie Hamelink,Lindale,131.72,283.5,165.56,263.08,712.14,Single-ply,SBD,M,
Boys,124.74+,3,Carson Manasse,Longview Spring Hill,142.16,263.08,156.49,238.14,657.71,Single-ply,SBD,M,
Boys,124.74+,4,Cade Crawford,Forney,143.34,283.5,145.15,215.46,644.1,Single-ply,SBD,M,
Boys,124.74+,5,Jerry Kennedy,Whitehouse,126.92,258.55,147.42,215.46,621.42,Single-ply,SBD,M,
Boys,124.74+,6,Tristan Green,Gladewater Sabine,132.99,231.33,170.1,204.12,605.55,Single-ply,SBD,M,
Boys,124.74+,7,Cameron Gray,Gladewater Sabine,143.79,226.8,183.7,181.44,591.94,Single-ply,SBD,M,
Boys,124.74+,8,Luke Sandifer,Lindale,127.28,226.8,122.47,213.19,562.45,Single-ply,SBD,M,
Boys,124.74+,9,Alex Ramirez,Forney,128.64,204.12,136.08,199.58,539.77,Single-ply,SBD,M,
Boys,124.74+,10,Cj Fite,Tatum,131.63,215.46,113.4,208.65,537.51,Single-ply,SBD,M,
Boys,124.74+,11,Rudolfo Fierros,Gladewater Sabine,142.97,226.8,124.74,183.7,535.24,Single-ply,SBD,M,
Boys,124.74+,12,Reese Mercer,Forney,127.19,215.46,108.86,185.97,510.29,Single-ply,SBD,M,
Boys,124.74+,13,Tyler Welborn,Mount Pleasant,150.41,199.58,117.93,192.78,510.29,Single-ply,SBD,M,
Boys,124.74+,14,Jackson Anderson,Mineola,130.91,192.78,115.67,197.31,505.76,Single-ply,SBD,M,
Boys,124.74+,15,Luis Dunn,Marshall,126.55,183.7,102.06,192.78,478.54,Single-ply,SBD,M,
Boys,124.74+,16,Josh Herrera,Mount Pleasant,139.89,206.38,97.52,158.76,462.66,Single-ply,SBD,M,
Boys,124.74+,17,Joseph Martinez,Mineola,130.82,142.88,92.99,151.95,387.82,Single-ply,SBD,M,
