Place,Name,Division,BirthYear,BodyweightKg,Bench1Kg,Bench2Kg,Bench3Kg,Best3BenchKg,Bench4Kg,WeightClassKg,Sex,CyrillicName,Tested,Equipment,Deadlift1Kg,Deadlift2Kg,Deadlift3Kg,Best3DeadliftKg,Event,TotalKg
1,Olena Lyubimova,O,1975,56,50,55,-57.5,55,,56,F,Олена Любімова,Yes,Raw,,,,,B,55
1,Olena Lyubimova,M1,1975,56,50,55,-57.5,55,,56,F,Олена Любімова,Yes,Raw,,,,,B,55
1,Danilo Shuturminskiy,T1,2004,54.7,55,60,-65,60,,56,M,Данило Шутурмінський,Yes,Raw,,,,,B,60
1,Vladislav Kovach,T2,2001,68,75,80,-82.5,80,,75,M,Владислав Ковач,Yes,Raw,,,,,B,80
1,Igor Epishev,M2,1969,72.8,110,115,120,120,,75,M,Ігор Єпішев,Yes,Raw,,,,,B,120
1,Ivan Melnichenko,J,1996,84.4,130,140,-145,140,,90,M,Іван Мельниченко,Yes,Raw,,,,,B,140
1,Andrey Zinich,O,1987,98,120,135,150,150,,100,M,Андрей Зинич,Yes,Raw,,,,,B,150
1,Oleg Volinets,O,1984,105.8,150,155,,155,,110,M,Олег Волинець,Yes,Raw,,,,,B,155
1,Yuriy Voloshin,M1,1975,101,160,170,-175,170,,110,M,Юрій Волошин,Yes,Raw,,,,,B,170
1,Yevgen Shuturminskyy,O,1967,129.8,190,200,210,210,,140,M,Євген Шутурмінський,Yes,Raw,,,,,B,210
1,Yevgen Shuturminskyy,M3,1967,129.8,190,200,210,210,,140,M,Євген Шутурмінський,Yes,Raw,,,,,B,210
1,Mariya Kravchuk,O,1983,56,72.5,77.5,-82.5,77.5,,56,F,Марія Кравчук,No,Raw,,,,,B,77.5
1,Irina Nikolaenko,O,1979,65,67.5,72.5,-75,72.5,,67.5,F,Ірина Ніколаєнко,No,Raw,,,,,B,72.5
1,Yuriy Osadchenko,O,1961,81,165,-170,170,170,,82.5,M,Юрій Осадченко,No,Raw,,,,,B,170
1,Yuriy Osadchenko,M4,1961,81,165,-170,170,170,,82.5,M,Юрій Осадченко,No,Raw,,,,,B,170
1,Oleksiy Bronishevskiy,O,1988,87.6,195,-200,-200,195,,90,M,Олексій Бронішевський,No,Raw,,,,,B,195
1,Andriy Yavorskiy,J,1996,95.7,180,190,195,195,,100,M,Андрій Яворський,No,Raw,,,,,B,195
1,Daniil Shmatovskiy,O,1983,97,205,210,215,215,220,100,M,Даниил Шматовский,No,Raw,,,,,B,215
2,Andriy Yavorskiy,O,1996,95.7,180,190,195,195,,100,M,Андрій Яворський,No,Raw,,,,,B,195
DQ,Stanislav Nikolaenko,O,1978,115,-287.5,-292.5,-292.5,,,125,M,Станіслав Ніколаєнко,No,Multi-ply,,,,,B,
1,Veronika Venediktova,O,1985,58.5,,,,,,60,F,Вероніка Венедіктова,Yes,Raw,135,142.5,150,150,D,150
1,Olga Ladik,O,1981,61.5,,,,,,67.5,F,Ольга Ладик,Yes,Raw,80,87.5,95,95,D,95
DQ,Dmitriy Sinchuk,O,1993,67.5,,,,,,67.5,M,Дмитрий Синчук,Yes,Raw,-155,-155,-155,,D,
1,Vladislav Kovach,T2,2001,68,,,,,,75,M,Владислав Ковач,Yes,Raw,120,140,155,155,D,155
1,Rostyslav Polonskyy,O,1977,73,,,,,,75,M,Ростислав Полонський,Yes,Raw,210,230,-260,230,D,230
2,Vitaliy Titarenko #1,O,1990,74,,,,,,75,M,Віталій Титаренко,Yes,Raw,185,202.5,-207.5,202.5,D,202.5
1,Dmitriy Barabash,J,1996,94.4,,,,,,100,M,Дмитрий Барабаш,Yes,Raw,170,180,195,195,D,195
1,Andrey Zinich,O,1987,98,,,,,,100,M,Андрей Зинич,Yes,Raw,175,202.5,215,215,D,215
1,Andriy Bronishevskiy,J,1993,105.9,,,,,,110,M,Андрій Бронішевський,Yes,Raw,250,265,272.5,272.5,D,272.5
1,Andriy Bronishevskiy,O,1993,105.9,,,,,,110,M,Андрій Бронішевський,Yes,Raw,250,265,272.5,272.5,D,272.5
2,Ivan Khaschevatskiy,O,1992,110,,,,,,110,M,Іван Хащевацький,Yes,Raw,200,-215,220,220,D,220
1,Andriy Boyko,O,1993,75.9,,,,,,82.5,M,Андрій Бойко,No,Raw,205,215,225,225,D,225
1,Evgeniy Kandaurov,O,1988,88.8,,,,,,90,M,Євгеній Кандауров,No,Raw,210,-220,-220,210,D,210
1,Dmytro Kharchenko,O,1991,95,,,,,,100,M,Дмитро Харченко,No,Raw,-280,290,300,300,D,300
1,Aris Eyubov,O,1979,100.5,,,,,,110,M,Арис Эюбов,No,Raw,260,280,-310,280,D,280
