Place,Sex,Name,CyrillicName,BodyweightKg,Squat1Kg,Squat2Kg,Squat3Kg,Best3SquatKg,Squat4Kg,Bench1Kg,Bench2Kg,Bench3Kg,Best3BenchKg,Bench4Kg,Deadlift1Kg,Deadlift2Kg,Deadlift3Kg,Best3DeadliftKg,Deadlift4Kg,TotalKg,WeightClassKg,Event,Equipment,Tested,Division,Age,BirthDate
1,F,Alla Sinchugova,Алла Синчугова,45.8,-50,55,,55,,27.5,32.5,,32.5,,50,60,65,65,,152.5,48,SBD,Single-ply,Yes,Open,27,1989-05-24
1,M,Oleg Rybalko,Олег Рыбалко,98.8,260,-270,-270,260,,-170,170,-180,170,,270,-310,-310,270,,700,100,SBD,Single-ply,No,Open,34,1982-10-16
DQ,M,Vladislav Fink,Владислав Финк,98.2,-250,-260,-260,,,,,,,,,,,,,,100,SBD,Single-ply,No,Open,39,1977-05-05
1,M,Anatoliy Troyashkin,Анатолий Трояшкин,73.15,,,,,,170,-180,-185,170,,,,,,,170,75,B,Single-ply,Yes,Open,27,1989-01-16
1,M,Pavel Gurov,Павел Гуров,72.7,,,,,,205,-220,232.5,232.5,,,,,,,232.5,75,B,Single-ply,No,Open,26,1990-04-10
1,M,Aleksey Gasanov,Алексей Гасанов,90,,,,,,-260,-260,272.5,272.5,,,,,,,272.5,90,B,Single-ply,No,Open,34,1982-04-13
2,M,Sergey Talalaev,Сергей Талалаев,89,,,,,,200,-210,210,210,,,,,,,210,90,B,Single-ply,No,Open,48,1968-09-07
3,M,Sergey Zakharov,Сергей Захаров,90,,,,,,-190,190,-205,190,,,,,,,190,90,B,Single-ply,No,Open,36,1980-07-18
1,M,Sergey Talalaev,Сергей Талалаев,89,,,,,,200,-210,210,210,,,,,,,210,90,B,Single-ply,No,Masters 45-49,48,1968-09-07
1,M,Dmitriry Pinchuk,Дмитрирй Пинчук,90.8,,,,,,130,140,142.5,142.5,,,,,,,142.5,100,B,Single-ply,No,Teen 18-19,19,1997-04-29
1,M,Vladislav Shkudas,Владислав Шкудас,99.35,,,,,,300,312.5,320,320,,,,,,,320,100,B,Single-ply,No,Open,27,1989-03-30
2,M,Andrey Utkin,Андрей Уткин,98.6,,,,,,295,305,-312.5,305,,,,,,,305,100,B,Single-ply,No,Open,39,1976-12-21
3,M,Sergey Strilchuk,Сергей Стрильчук,97.6,,,,,,-250,-250,250,250,,,,,,,250,100,B,Single-ply,No,Open,29,1987-04-02
1,M,Vladimir Konopatskiy,Владимир Конопацкий,106.75,,,,,,,,,,,275,290,,290,,290,110,D,Raw,No,Open,43,1973-08-06
1,M,Oleg Vinokurov,Олег Винокуров,74,,,,,,135,140,-145,140,,,,,,,140,75,B,Multi-ply,Yes,Masters 50-54,50,1966-05-10
1,M,Pavel Dvoryadkin,Павел Дворядкин,81.3,,,,,,170,180,195,195,,,,,,,195,82.5,B,Multi-ply,Yes,Open,30,1986-07-17
2,M,Vladimir Plotnikov,Владимир Плотников,79.5,,,,,,-180,192.5,-195,192.5,,,,,,,192.5,82.5,B,Multi-ply,Yes,Open,35,1981-06-24
1,M,Mikhail Smorodin,Михаил Смородин,85.6,,,,,,165,172.5,-177.5,172.5,,,,,,,172.5,90,B,Multi-ply,Yes,Open,36,1980-07-13
2,M,Evgeniy Lagutin,Евгений Лагутин,89,,,,,,160,-167.5,-167.5,160,,,,,,,160,90,B,Multi-ply,Yes,Open,28,1988-06-04
1,M,Evgeniy Novikov,Евгений Новиков,68.8,,,,,,110,120,130,130,,,,,,,130,75,B,Multi-ply,No,Juniors 20-23,23,1993-10-11
DQ,M,Mikhail Nefedov,Михаил Нефедов,100.4,,,,,,-215,,,,,,,,,,,110,B,Multi-ply,No,Masters 40-44,44,1972-05-07
1,M,Yuriy Demyanchuk,Юрий Демьянчук,130.35,,,,,,-235,240,-265,240,,,,,,,240,140,B,Multi-ply,No,Open,38,1978-10-03
1,F,Alla Sinchugova,Алла Синчугова,45.8,,,,,,,,,,,50,60,65,65,,65,48,D,Raw,Yes,Open,27,1989-05-24
1,M,Aleksandr Levin,Александр Левин,65.5,,,,,,,,,,,200,210,-215,210,,210,67.5,D,Raw,Yes,Open,24,1992-10-01
1,M,Rinat Usmanov,Ринат Усманов,80.5,,,,,,,,,,,230,245,-255,245,,245,82.5,D,Raw,Yes,Open,28,1988-07-21
2,M,Vladimir Pyankov,Владимир Пьяньков,79.9,,,,,,,,,,,210,-222.5,222.5,222.5,,222.5,82.5,D,Raw,Yes,Open,26,1989-11-26
1,M,Viktor Osipov,Виктор Осипов,84.9,,,,,,,,,,,210,220,232.5,232.5,,232.5,90,D,Raw,Yes,Open,26,1990-04-27
2,M,Aleksandr Mazitov,Александр Мазитов,85.6,,,,,,,,,,,170,185,-200,185,,185,90,D,Raw,Yes,Open,25,1991-01-27
1,M,Oleg Mardanov,Олег Марданов,94.7,,,,,,,,,,,250,265,-280,265,,265,100,D,Raw,Yes,Open,31,1985-07-02
1,M,Stanislav Tsygankov,Станислав Цыганков,119.3,,,,,,,,,,,220,230,240,240,,240,125,D,Raw,Yes,Open,31,1985-10-28
1,M,Artur Dayker,Артур Дайкер,72.8,,,,,,,,,,,155,165,-175,165,,165,75,D,Raw,No,Open,30,1986-05-31
1,M,Roman Akulshin,Роман Акульшин,89,,,,,,,,,,,235,245,-250,245,,245,90,D,Raw,No,Open,23,1993-06-26
1,M,Mikhail Troshinskiy,Михаил Трошинский,86.7,,,,,,,,,,,140,155,165,165,,165,90,D,Raw,No,Open,32,1984-10-28
1,M,Viktor Ignatev,Виктор Игнатьев,92.6,,,,,,,,,,,210,220,230,230,,230,100,D,Raw,No,Open,24,1992-01-09
1,M,Dmitriy Merkulov,Дмитрий Меркулов,109.4,,,,,,,,,,,230,250,-260,250,,250,110,D,Raw,No,Open,42,1974-08-21
1,M,Dmitriy Merkulov,Дмитрий Меркулов,109.4,,,,,,,,,,,230,250,-260,250,,250,110,D,Raw,No,Masters 40-44,42,1974-08-21
1,M,Vladislav Myagi,Владислав Мяги,113.7,,,,,,,,,,,215,225,235,235,,235,125,D,Raw,No,Open,17,1999-05-25
1,M,Yuriy Demyanchuk,Юрий Демьянчук,130.4,,,,,,,,,,,275,290,297.5,297.5,,297.5,140,D,Raw,No,Open,38,1978-10-03
1,F,Evgeniya Zakhvatkina,Евгения Захваткина,47.65,,,,,,42.5,-45,45,45,,,,,,,45,48,B,Raw,Yes,Open,30,1986-07-24
1,M,Aleksandr Levin,Александр Левин,65.5,,,,,,115,120,-125,120,,,,,,,120,67.5,B,Raw,Yes,Open,24,1992-10-01
1,M,Anatoliy Troyashkin,Анатолий Трояшкин,73.2,,,,,,140,150,-155,150,,,,,,,150,75,B,Raw,Yes,Open,27,1989-01-16
1,M,Oleg Vinokurov,Олег Винокуров,74.6,,,,,,115,117.5,-120,117.5,,,,,,,117.5,75,B,Raw,Yes,Masters 50-54,50,1966-05-10
1,M,Aleksadr Gabidullin,Алексадр Габидуллин,80.8,,,,,,110,120,-122.5,120,,,,,,,120,82.5,B,Raw,Yes,Open,17,1999-09-06
1,M,Vladimir Plotnikov,Владимир Плотников,79.5,,,,,,155,167.5,,167.5,,,,,,,167.5,82.5,B,Raw,Yes,Open,35,1981-06-24
2,M,Pavel Dvoryadkin,Павел Дворядкин,81.3,,,,,,150,155,-160,155,,,,,,,155,82.5,B,Raw,Yes,Open,30,1986-07-17
3,M,Vadim Dmitriev,Вадим Дмитриев,81.5,,,,,,-110,110,115,115,,,,,,,115,82.5,B,Raw,Yes,Open,26,1990-02-05
1,M,Vyacheslav Troshinskiy,Вячеслав Трошинский,82.2,,,,,,115,125,130,130,,,,,,,130,82.5,B,Raw,Yes,Masters 55-59,56,1960-05-10
1,M,Evgeniy Lagutin,Евгений Лагутин,89,,,,,,135,-142.5,-142.5,135,,,,,,,135,90,B,Raw,Yes,Open,28,1988-06-04
1,M,Aleksandr Krupenko,Александр Крупенко,86.7,,,,,,122.5,127.5,-132.5,127.5,,,,,,,127.5,90,B,Raw,Yes,Masters 40-44,42,1974-07-20
1,M,Pyotr Strizhekozin,Пётр Стрижекозин,97.4,,,,,,145,-162.5,-162.5,145,,,,,,,145,100,B,Raw,Yes,Open,29,1987-05-09
2,M,Aleksandr Dikov,Александр Диков,92.9,,,,,,135,-145,-145,135,,,,,,,135,100,B,Raw,Yes,Open,46,1970-03-29
1,M,Aleksey Skochilov,Алексей Скочилов,109.7,,,,,,-140,140,147.5,147.5,,,,,,,147.5,110,B,Raw,Yes,Open,26,1990-05-20
1,M,Stanislav Tsygankov,Станислав Цыганков,119.3,,,,,,145,-152.5,152.5,152.5,,,,,,,152.5,125,B,Raw,Yes,Open,31,1985-10-28
1,M,Timur Chugunov,Тимур Чугунов,66.3,,,,,,122.5,-127.5,-127.5,122.5,,,,,,,122.5,67.5,B,Raw,No,Open,20,1996-10-15
1,M,Igor Kuchin,Игорь Кучин,67.1,,,,,,150,-155,,150,,,,,,,150,67.5,B,Raw,No,Masters 45-49,49,1967-06-11
1,M,Maksim Bushkin,Максим Бушкин,71.5,,,,,,135,140,147.5,147.5,,,,,,,147.5,75,B,Raw,No,Open,17,1999-03-29
1,M,Artur Dayker,Артур Дайкер,72.8,,,,,,110,-115,-115,110,,,,,,,110,75,B,Raw,No,Open,30,1986-05-31
1,M,Aleksandr Gugnyakov,Александр Гугняков,73.8,,,,,,145,-155,155,155,,,,,,,155,75,B,Raw,No,Masters 40-44,42,1974-09-17
1,M,Aleksadr Gabidullin,Алексадр Габидуллин,80.8,,,,,,110,120,-122.5,120,,,,,,,120,82.5,B,Raw,No,Open,17,1999-09-06
1,M,Boris Gordeev,Борис Гордеев,76.9,,,,,,140,145,150,150,,,,,,,150,82.5,B,Raw,No,Open,35,1981-08-25
DQ,M,Roman Akulshin,Роман Акульшин,89,,,,,,-157.5,-157.5,,,,,,,,,,90,B,Raw,No,Open,23,1993-06-26
1,M,Pavel Karpukhin,Павел Карпухин,87.9,,,,,,-170,170,175,175,,,,,,,175,90,B,Raw,No,Open,29,1987-10-16
2,M,Dmitriy Sidorov,Дмитрий Сидоров,89.1,,,,,,-145,145,-152.5,145,,,,,,,145,90,B,Raw,No,Open,28,1988-03-29
DQ,M,Aleksey Gasanov,Алексей Гасанов,90,,,,,,-190,-190,-190,,,,,,,,,90,B,Raw,No,Open,34,1982-04-13
DQ,M,Artem Salekhov,Артем Салехов,98.15,,,,,,-170,-170,-170,,,,,,,,,100,B,Raw,No,Open,26,1990-02-21
1,M,Andrey Kulagin,Андрей Кулагин,108.7,,,,,,220,227.5,230,230,,,,,,,230,110,B,Raw,No,Open,38,1978-09-16
2,M,Vladimir Adamov,Владимир Адамов,104.8,,,,,,150,160,172.5,172.5,,,,,,,172.5,110,B,Raw,No,Open,30,1986-04-25
3,M,Anton Shishkin,Антон Шишкин,101,,,,,,115,125,132.5,132.5,,,,,,,132.5,110,B,Raw,No,Open,27,1989-05-05
DQ,M,Nikolay Sadkin,Николай Садкин,106.5,,,,,,-160,-160,-160,,,,,,,,,110,B,Raw,No,Open,34,1981-11-01
DQ,M,Maksim Vlaskin,Максим Власкин,106.7,,,,,,-185,-185,-185,,,,,,,,,110,B,Raw,No,Open,34,1981-12-11
1,M,Mikhail Nefedov,Михаил Нефедов,100.4,,,,,,190,-195,,190,,,,,,,190,110,B,Raw,No,Masters 40-44,44,1972-05-07
2,M,Dmitriy Merkulov,Дмитрий Меркулов,109.4,,,,,,150,160,170,170,,,,,,,170,110,B,Raw,No,Masters 40-44,42,1974-08-21
1,M,Dmitriy Poltoratskiy,Дмитрий Полторацкий,112.7,,,,,,135,-145,150,150,,,,,,,150,125,B,Raw,No,Open,24,1992-10-19
1,M,Dmitriy Antonov,Дмитрий Антонов,83.5,175,185,200,200,,120,130,142.5,142.5,,200,215,225,225,,567.5,90,SBD,Wraps,Yes,Open,26,1989-12-05
1,F,Olga Buylova,Ольга Буйлова,59.2,50,65,75,75,,35,40,-45,40,,60,70,80,80,,195,60,SBD,Wraps,No,Open,26,1990-05-15
1,M,Dmitriy Kin,Дмитрий Кин,59.5,75,82.5,-90,82.5,,57.5,62.5,67.5,67.5,,105,117.5,125,125,,275,60,SBD,Wraps,No,Open,18,1998-01-08
1,M,Sergey Krysanov,Сергей Крысанов,65.1,125,135,-140,135,,95,100,102.5,102.5,,175,-185,187.5,187.5,,425,67.5,SBD,Wraps,No,Open,22,1994-04-04
1,M,Aleksandr Kurbakov,Александр Курбаков,67.6,95,100,110,110,,90,105,110,110,,135,140,-150,140,,360,75,SBD,Wraps,No,Open,17,1998-12-01
1,M,Sergey Balotnikov,Сергей Балотников,72.9,130,140,150,150,,105,110,-115,110,,180,195,-210,195,,455,75,SBD,Wraps,No,Open,22,1994-03-07
1,M,Ilmir Sibgatullin,Ильмир Сибгатуллин,89.2,150,155,160,160,,105,112.5,117.5,117.5,,140,152.5,165,165,,442.5,90,SBD,Wraps,No,Open,22,1993-12-18
1,M,Ilya Rachov,Илья Рачов,87.4,-220,-220,220,220,,140,150,160,160,,220,235,245,245,,625,90,SBD,Wraps,No,Open,30,1986-05-01
2,M,Mikhail Troshinskiy,Михаил Трошинский,86.7,150,160,170,170,,115,125,-130,125,,140,155,165,165,,460,90,SBD,Wraps,No,Open,32,1984-10-28
1,M,Aleksey Pushilo,Алексей Пушило,96.6,150,-160,160,160,,-100,100,,100,,170,185,-200,185,,445,100,SBD,Wraps,No,Open,23,1993-03-11
1,M,Dmitriy Merkulov,Дмитрий Меркулов,109.4,-250,,290,290,,-150,,170,170,,230,250,-260,250,,710,110,SBD,Wraps,No,Open,42,1974-08-21
2,M,Aleksandr Mavrinskiy,Александр Мавринский,101.2,200,220,,220,,150,160,170,170,,280,300,-312.5,300,,690,110,SBD,Wraps,No,Open,33,1982-11-22
3,M,Mikhail Yanson,Михаил Янсон,104.3,190,-205,205,205,,140,147.5,155,155,,160,180,200,200,,560,110,SBD,Wraps,No,Open,28,1988-01-16
1,M,Dmitriy Merkulov,Дмитрий Меркулов,109.4,250,270,290,290,,150,160,170,170,,230,250,-260,250,,710,110,SBD,Wraps,No,Masters 40-44,42,1974-08-21
1,M,Stanislav Moskalenko,Станислав Москаленко,126.9,270,300,-330,300,,160,175,-185,175,,235,255,275,275,,750,140,SBD,Wraps,No,Open,23,1992-11-13
